,SANGER_SAMPLE_ID,SUPPLIER_SAMPLE_NAME,PLATE,COMMON_NAME,CELL_NAME,AGE,SEX
1,5317STDY7887447,F endot A1,PL1_1601 A1,femur endot A1,X5317STDY7887447,20 pcw,female
2,5317STDY7887448,F endot A2,PL1_1601 A2,femur endot A2,X5317STDY7887448,20 pcw,female
3,5317STDY7887449,F endot A3,PL1_1601 A3,femur endot A3,X5317STDY7887449,20 pcw,female
4,5317STDY7887450,F endot A4,PL1_1601 A4,femur endot A4,X5317STDY7887450,20 pcw,female
5,5317STDY7887451,F endot A5,PL1_1601 A5,femur endot A5,X5317STDY7887451,20 pcw,female
6,5317STDY7887452,F endot A6,PL1_1601 A6,femur endot A6,X5317STDY7887452,20 pcw,female
7,5317STDY7887453,F endot A7,PL1_1601 A7,femur endot A7,X5317STDY7887453,20 pcw,female
8,5317STDY7887454,F endot A8,PL1_1601 A8,femur endot A8,X5317STDY7887454,20 pcw,female
9,5317STDY7887455,F endot A9,PL1_1601 A9,femur endot A9,X5317STDY7887455,20 pcw,female
10,5317STDY7887456,F endot A10,PL1_1601 A10,femur endot A10,X5317STDY7887456,20 pcw,female
11,5317STDY7887457,F endot A11,PL1_1601 A11,femur endot A11,X5317STDY7887457,20 pcw,female
12,5317STDY7887458,F endot A12,PL1_1601 A12,femur endot A12,X5317STDY7887458,20 pcw,female
13,5317STDY7887459,F endot B1,PL1_1601 B1,femur endot B1,X5317STDY7887459,20 pcw,female
14,5317STDY7887460,F endot B2,PL1_1601 B2,femur endot B2,X5317STDY7887460,20 pcw,female
15,5317STDY7887461,F endot B3,PL1_1601 B3,femur endot B3,X5317STDY7887461,20 pcw,female
16,5317STDY7887462,F endot B4,PL1_1601 B4,femur endot B4,X5317STDY7887462,20 pcw,female
17,5317STDY7887463,F endot B5,PL1_1601 B5,femur endot B5,X5317STDY7887463,20 pcw,female
18,5317STDY7887464,F endot B6,PL1_1601 B6,femur endot B6,X5317STDY7887464,20 pcw,female
19,5317STDY7887465,F endot B7,PL1_1601 B7,femur endot B7,X5317STDY7887465,20 pcw,female
20,5317STDY7887466,F endot B8,PL1_1601 B8,femur endot B8,X5317STDY7887466,20 pcw,female
21,5317STDY7887467,F endot B9,PL1_1601 B9,femur endot B9,X5317STDY7887467,20 pcw,female
22,5317STDY7887468,F endot B10,PL1_1601 B10,femur endot B10,X5317STDY7887468,20 pcw,female
23,5317STDY7887469,F endot B11,PL1_1601 B11,femur endot B11,X5317STDY7887469,20 pcw,female
24,5317STDY7887470,F endot B12,PL1_1601 B12,femur endot B12,X5317STDY7887470,20 pcw,female
25,5317STDY7887471,F endot C1,PL1_1601 C1,femur endot C1,X5317STDY7887471,20 pcw,female
26,5317STDY7887472,F endot C2,PL1_1601 C2,femur endot C2,X5317STDY7887472,20 pcw,female
27,5317STDY7887473,F endot C3,PL1_1601 C3,femur endot C3,X5317STDY7887473,20 pcw,female
28,5317STDY7887474,F endot C4,PL1_1601 C4,femur endot C4,X5317STDY7887474,20 pcw,female
29,5317STDY7887475,F endot C5,PL1_1601 C5,femur endot C5,X5317STDY7887475,20 pcw,female
30,5317STDY7887476,F endot C6,PL1_1601 C6,femur endot C6,X5317STDY7887476,20 pcw,female
31,5317STDY7887477,F endot C7,PL1_1601 C7,femur endot C7,X5317STDY7887477,20 pcw,female
32,5317STDY7887478,F endot C8,PL1_1601 C8,femur endot C8,X5317STDY7887478,20 pcw,female
33,5317STDY7887479,F endot C9,PL1_1601 C9,femur endot C9,X5317STDY7887479,20 pcw,female
34,5317STDY7887480,F endot C10,PL1_1601 C10,femur endot C10,X5317STDY7887480,20 pcw,female
35,5317STDY7887481,F endot C11,PL1_1601 C11,femur endot C11,X5317STDY7887481,20 pcw,female
36,5317STDY7887482,F endot C12,PL1_1601 C12,femur endot C12,X5317STDY7887482,20 pcw,female
37,5317STDY7887483,F endot D1,PL1_1601 D1,femur endot D1,X5317STDY7887483,20 pcw,female
38,5317STDY7887484,F endot D2,PL1_1601 D2,femur endot D2,X5317STDY7887484,20 pcw,female
39,5317STDY7887485,F endot D3,PL1_1601 D3,femur endot D3,X5317STDY7887485,20 pcw,female
40,5317STDY7887486,F endot D4,PL1_1601 D4,femur endot D4,X5317STDY7887486,20 pcw,female
41,5317STDY7887487,F endot D5,PL1_1601 D5,femur endot D5,X5317STDY7887487,20 pcw,female
42,5317STDY7887488,F endot D6,PL1_1601 D6,femur endot D6,X5317STDY7887488,20 pcw,female
43,5317STDY7887489,F endot D7,PL1_1601 D7,femur endot D7,X5317STDY7887489,20 pcw,female
44,5317STDY7887490,F endot D8,PL1_1601 D8,femur endot D8,X5317STDY7887490,20 pcw,female
45,5317STDY7887491,F endot D9,PL1_1601 D9,femur endot D9,X5317STDY7887491,20 pcw,female
46,5317STDY7887492,F endot D10,PL1_1601 D10,femur endot D10,X5317STDY7887492,20 pcw,female
47,5317STDY7887493,L endot E1,PL1_1601 E1,liver endot E1,X5317STDY7887493,20 pcw,female
48,5317STDY7887494,L endot E2,PL1_1601 E2,liver endot E2,X5317STDY7887494,20 pcw,female
49,5317STDY7887495,L endot E3,PL1_1601 E3,liver endot E3,X5317STDY7887495,20 pcw,female
50,5317STDY7887496,L endot E4,PL1_1601 E4,liver endot E4,X5317STDY7887496,20 pcw,female
51,5317STDY7887497,L endot E5,PL1_1601 E5,liver endot E5,X5317STDY7887497,20 pcw,female
52,5317STDY7887498,L endot E6,PL1_1601 E6,liver endot E6,X5317STDY7887498,20 pcw,female
53,5317STDY7887499,L endot E7,PL1_1601 E7,liver endot E7,X5317STDY7887499,20 pcw,female
54,5317STDY7887500,L endot E8,PL1_1601 E8,liver endot E8,X5317STDY7887500,20 pcw,female
55,5317STDY7887501,L endot E9,PL1_1601 E9,liver endot E9,X5317STDY7887501,20 pcw,female
56,5317STDY7887502,L endot E10,PL1_1601 E10,liver endot E10,X5317STDY7887502,20 pcw,female
57,5317STDY7887503,L endot E11,PL1_1601 E11,liver endot E11,X5317STDY7887503,20 pcw,female
58,5317STDY7887504,L endot E12,PL1_1601 E12,liver endot E12,X5317STDY7887504,20 pcw,female
59,5317STDY7887505,L endot F1,PL1_1601 F1,liver endot F1,X5317STDY7887505,20 pcw,female
60,5317STDY7887506,L endot F2,PL1_1601 F2,liver endot F2,X5317STDY7887506,20 pcw,female
61,5317STDY7887507,L endot F3,PL1_1601 F3,liver endot F3,X5317STDY7887507,20 pcw,female
62,5317STDY7887508,L endot F4,PL1_1601 F4,liver endot F4,X5317STDY7887508,20 pcw,female
63,5317STDY7887509,L endot F5,PL1_1601 F5,liver endot F5,X5317STDY7887509,20 pcw,female
64,5317STDY7887510,L endot F6,PL1_1601 F6,liver endot F6,X5317STDY7887510,20 pcw,female
65,5317STDY7887511,L endot F7,PL1_1601 F7,liver endot F7,X5317STDY7887511,20 pcw,female
66,5317STDY7887512,L endot F8,PL1_1601 F8,liver endot F8,X5317STDY7887512,20 pcw,female
67,5317STDY7887513,L endot F9,PL1_1601 F9,liver endot F9,X5317STDY7887513,20 pcw,female
68,5317STDY7887514,L endot F10,PL1_1601 F10,liver endot F10,X5317STDY7887514,20 pcw,female
69,5317STDY7887515,L endot F11,PL1_1601 F11,liver endot F11,X5317STDY7887515,20 pcw,female
70,5317STDY7887516,L endot F12,PL1_1601 F12,liver endot F12,X5317STDY7887516,20 pcw,female
71,5317STDY7887517,L endot G1,PL1_1601 G1,liver endot G1,X5317STDY7887517,20 pcw,female
72,5317STDY7887518,L endot G2,PL1_1601 G2,liver endot G2,X5317STDY7887518,20 pcw,female
73,5317STDY7887519,L endot G3,PL1_1601 G3,liver endot G3,X5317STDY7887519,20 pcw,female
74,5317STDY7887520,L endot G4,PL1_1601 G4,liver endot G4,X5317STDY7887520,20 pcw,female
75,5317STDY7887521,L endot G5,PL1_1601 G5,liver endot G5,X5317STDY7887521,20 pcw,female
76,5317STDY7887522,L endot G6,PL1_1601 G6,liver endot G6,X5317STDY7887522,20 pcw,female
77,5317STDY7887523,L endot G7,PL1_1601 G7,liver endot G7,X5317STDY7887523,20 pcw,female
78,5317STDY7887524,L endot G8,PL1_1601 G8,liver endot G8,X5317STDY7887524,20 pcw,female
79,5317STDY7887525,L endot G9,PL1_1601 G9,liver endot G9,X5317STDY7887525,20 pcw,female
80,5317STDY7887526,L endot G10,PL1_1601 G10,liver endot G10,X5317STDY7887526,20 pcw,female
81,5317STDY7887527,L endot G11,PL1_1601 G11,liver endot G11,X5317STDY7887527,20 pcw,female
82,5317STDY7887528,L endot G12,PL1_1601 G12,liver endot G12,X5317STDY7887528,20 pcw,female
83,5317STDY7887529,L endot H1,PL1_1601 H1,liver endot H1,X5317STDY7887529,20 pcw,female
84,5317STDY7887530,L endot H2,PL1_1601 H2,liver endot H2,X5317STDY7887530,20 pcw,female
85,5317STDY7887531,L endot H3,PL1_1601 H3,liver endot H3,X5317STDY7887531,20 pcw,female
86,5317STDY7887532,L endot H4,PL1_1601 H4,liver endot H4,X5317STDY7887532,20 pcw,female
87,5317STDY7887533,L endot H5,PL1_1601 H5,liver endot H5,X5317STDY7887533,20 pcw,female
88,5317STDY7887534,L endot H6,PL1_1601 H6,liver endot H6,X5317STDY7887534,20 pcw,female
89,5317STDY7887535,L endot H7,PL1_1601 H7,liver endot H7,X5317STDY7887535,20 pcw,female
90,5317STDY7887536,L endot H8,PL1_1601 H8,liver endot H8,X5317STDY7887536,20 pcw,female
91,5317STDY7887537,L endot H9,PL1_1601 H9,liver endot H9,X5317STDY7887537,20 pcw,female
92,5317STDY7887538,L endot H10,PL1_1601 H10,liver endot H10,X5317STDY7887538,20 pcw,female
93,5317STDY7887539,L GMP23 A1,PL2_3101 A1,liver GMP23 A1,X5317STDY7887539,19 pcw,female
94,5317STDY7887540,L GMP23 A2,PL2_3101 A2,liver GMP23 A2,X5317STDY7887540,19 pcw,female
95,5317STDY7887541,L GMP23 A3,PL2_3101 A3,liver GMP23 A3,X5317STDY7887541,19 pcw,female
96,5317STDY7887542,L GMP23 A4,PL2_3101 A4,liver GMP23 A4,X5317STDY7887542,19 pcw,female
97,5317STDY7887543,L GMP23 A5,PL2_3101 A5,liver GMP23 A5,X5317STDY7887543,19 pcw,female
98,5317STDY7887544,L GMP23 A6,PL2_3101 A6,liver GMP23 A6,X5317STDY7887544,19 pcw,female
99,5317STDY7887545,L GMP23 A7,PL2_3101 A7,liver GMP23 A7,X5317STDY7887545,19 pcw,female
100,5317STDY7887546,L GMP23 A8,PL2_3101 A8,liver GMP23 A8,X5317STDY7887546,19 pcw,female
101,5317STDY7887547,L GMP23 A9,PL2_3101 A9,liver GMP23 A9,X5317STDY7887547,19 pcw,female
102,5317STDY7887548,L GMP23 A10,PL2_3101 A10,liver GMP23 A10,X5317STDY7887548,19 pcw,female
103,5317STDY7887549,L GMP23 A11,PL2_3101 A11,liver GMP23 A11,X5317STDY7887549,19 pcw,female
104,5317STDY7887550,L GMP23 A12,PL2_3101 A12,liver GMP23 A12,X5317STDY7887550,19 pcw,female
105,5317STDY7887551,L GMP23 B1,PL2_3101 B1,liver GMP23 B1,X5317STDY7887551,19 pcw,female
106,5317STDY7887552,L GMP23 B2,PL2_3101 B2,liver GMP23 B2,X5317STDY7887552,19 pcw,female
107,5317STDY7887553,L GMP23 B3,PL2_3101 B3,liver GMP23 B3,X5317STDY7887553,19 pcw,female
108,5317STDY7887554,L GMP23 B4,PL2_3101 B4,liver GMP23 B4,X5317STDY7887554,19 pcw,female
109,5317STDY7887555,L GMP23 B5,PL2_3101 B5,liver GMP23 B5,X5317STDY7887555,19 pcw,female
110,5317STDY7887556,L GMP23 B6,PL2_3101 B6,liver GMP23 B6,X5317STDY7887556,19 pcw,female
111,5317STDY7887557,L GMP23 B7,PL2_3101 B7,liver GMP23 B7,X5317STDY7887557,19 pcw,female
112,5317STDY7887558,L GMP23 B8,PL2_3101 B8,liver GMP23 B8,X5317STDY7887558,19 pcw,female
113,5317STDY7887559,L GMP23 B9,PL2_3101 B9,liver GMP23 B9,X5317STDY7887559,19 pcw,female
114,5317STDY7887560,L GMP23 B10,PL2_3101 B10,liver GMP23 B10,X5317STDY7887560,19 pcw,female
115,5317STDY7887561,L GMP23 B11,PL2_3101 B11,liver GMP23 B11,X5317STDY7887561,19 pcw,female
116,5317STDY7887562,L GMP23 B12,PL2_3101 B12,liver GMP23 B12,X5317STDY7887562,19 pcw,female
117,5317STDY7887563,L GMP23 C1,PL2_3101 C1,liver GMP23 C1,X5317STDY7887563,19 pcw,female
118,5317STDY7887564,L GMP23 C2,PL2_3101 C2,liver GMP23 C2,X5317STDY7887564,19 pcw,female
119,5317STDY7887565,L GMP23 C3,PL2_3101 C3,liver GMP23 C3,X5317STDY7887565,19 pcw,female
120,5317STDY7887566,L GMP23 C4,PL2_3101 C4,liver GMP23 C4,X5317STDY7887566,19 pcw,female
121,5317STDY7887567,L GMP23 C5,PL2_3101 C5,liver GMP23 C5,X5317STDY7887567,19 pcw,female
122,5317STDY7887568,L GMP23 C6,PL2_3101 C6,liver GMP23 C6,X5317STDY7887568,19 pcw,female
123,5317STDY7887569,L GMP23 C7,PL2_3101 C7,liver GMP23 C7,X5317STDY7887569,19 pcw,female
124,5317STDY7887570,L GMP23 C8,PL2_3101 C8,liver GMP23 C8,X5317STDY7887570,19 pcw,female
125,5317STDY7887571,L GMP23 C9,PL2_3101 C9,liver GMP23 C9,X5317STDY7887571,19 pcw,female
126,5317STDY7887572,L GMP23 C10,PL2_3101 C10,liver GMP23 C10,X5317STDY7887572,19 pcw,female
127,5317STDY7887573,L GMP23 C11,PL2_3101 C11,liver GMP23 C11,X5317STDY7887573,19 pcw,female
128,5317STDY7887574,L GMP23 C12,PL2_3101 C12,liver GMP23 C12,X5317STDY7887574,19 pcw,female
129,5317STDY7887575,L GMP23 D1,PL2_3101 D1,liver GMP23 D1,X5317STDY7887575,19 pcw,female
130,5317STDY7887576,L GMP23 D2,PL2_3101 D2,liver GMP23 D2,X5317STDY7887576,19 pcw,female
131,5317STDY7887577,L GMP23 D3,PL2_3101 D3,liver GMP23 D3,X5317STDY7887577,19 pcw,female
132,5317STDY7887578,L GMP23 D4,PL2_3101 D4,liver GMP23 D4,X5317STDY7887578,19 pcw,female
133,5317STDY7887579,L GMP23 D5,PL2_3101 D5,liver GMP23 D5,X5317STDY7887579,19 pcw,female
134,5317STDY7887580,L GMP23 D6,PL2_3101 D6,liver GMP23 D6,X5317STDY7887580,19 pcw,female
135,5317STDY7887581,L GMP23 D7,PL2_3101 D7,liver GMP23 D7,X5317STDY7887581,19 pcw,female
136,5317STDY7887582,L GMP23 D8,PL2_3101 D8,liver GMP23 D8,X5317STDY7887582,19 pcw,female
137,5317STDY7887583,L GMP23 D9,PL2_3101 D9,liver GMP23 D9,X5317STDY7887583,19 pcw,female
138,5317STDY7887584,L GMP23 D10,PL2_3101 D10,liver GMP23 D10,X5317STDY7887584,19 pcw,female
139,5317STDY7887585,L CLP E1,PL2_3101 E1,liver CLP E1,X5317STDY7887585,19 pcw,female
140,5317STDY7887586,L CLP E2,PL2_3101 E2,liver CLP E2,X5317STDY7887586,19 pcw,female
141,5317STDY7887587,L CLP E3,PL2_3101 E3,liver CLP E3,X5317STDY7887587,19 pcw,female
142,5317STDY7887588,L CLP E4,PL2_3101 E4,liver CLP E4,X5317STDY7887588,19 pcw,female
143,5317STDY7887589,L CLP E5,PL2_3101 E5,liver CLP E5,X5317STDY7887589,19 pcw,female
144,5317STDY7887590,L CLP E6,PL2_3101 E6,liver CLP E6,X5317STDY7887590,19 pcw,female
145,5317STDY7887591,L CLP E7,PL2_3101 E7,liver CLP E7,X5317STDY7887591,19 pcw,female
146,5317STDY7887592,L CLP E8,PL2_3101 E8,liver CLP E8,X5317STDY7887592,19 pcw,female
147,5317STDY7887593,L CLP E9,PL2_3101 E9,liver CLP E9,X5317STDY7887593,19 pcw,female
148,5317STDY7887594,L CLP E10,PL2_3101 E10,liver CLP E10,X5317STDY7887594,19 pcw,female
149,5317STDY7887595,L CLP E11,PL2_3101 E11,liver CLP E11,X5317STDY7887595,19 pcw,female
150,5317STDY7887596,L CLP E12,PL2_3101 E12,liver CLP E12,X5317STDY7887596,19 pcw,female
151,5317STDY7887597,L CLP F1,PL2_3101 F1,liver CLP F1,X5317STDY7887597,19 pcw,female
152,5317STDY7887598,L CLP F2,PL2_3101 F2,liver CLP F2,X5317STDY7887598,19 pcw,female
153,5317STDY7887599,L CLP F3,PL2_3101 F3,liver CLP F3,X5317STDY7887599,19 pcw,female
154,5317STDY7887600,L CLP F4,PL2_3101 F4,liver CLP F4,X5317STDY7887600,19 pcw,female
155,5317STDY7887601,L CLP F5,PL2_3101 F5,liver CLP F5,X5317STDY7887601,19 pcw,female
156,5317STDY7887602,L CLP F6,PL2_3101 F6,liver CLP F6,X5317STDY7887602,19 pcw,female
157,5317STDY7887603,L CLP F7,PL2_3101 F7,liver CLP F7,X5317STDY7887603,19 pcw,female
158,5317STDY7887604,L CLP F8,PL2_3101 F8,liver CLP F8,X5317STDY7887604,19 pcw,female
159,5317STDY7887605,L CLP F9,PL2_3101 F9,liver CLP F9,X5317STDY7887605,19 pcw,female
160,5317STDY7887606,L CLP F10,PL2_3101 F10,liver CLP F10,X5317STDY7887606,19 pcw,female
161,5317STDY7887607,L CLP F11,PL2_3101 F11,liver CLP F11,X5317STDY7887607,19 pcw,female
162,5317STDY7887608,L CLP F12,PL2_3101 F12,liver CLP F12,X5317STDY7887608,19 pcw,female
163,5317STDY7887609,L CLP G1,PL2_3101 G1,liver CLP G1,X5317STDY7887609,19 pcw,female
164,5317STDY7887610,L CLP G2,PL2_3101 G2,liver CLP G2,X5317STDY7887610,19 pcw,female
165,5317STDY7887611,L CLP G3,PL2_3101 G3,liver CLP G3,X5317STDY7887611,19 pcw,female
166,5317STDY7887612,L CLP G4,PL2_3101 G4,liver CLP G4,X5317STDY7887612,19 pcw,female
167,5317STDY7887613,L CLP G5,PL2_3101 G5,liver CLP G5,X5317STDY7887613,19 pcw,female
168,5317STDY7887614,L CLP G6,PL2_3101 G6,liver CLP G6,X5317STDY7887614,19 pcw,female
169,5317STDY7887615,L CLP G7,PL2_3101 G7,liver CLP G7,X5317STDY7887615,19 pcw,female
170,5317STDY7887616,L CLP G8,PL2_3101 G8,liver CLP G8,X5317STDY7887616,19 pcw,female
171,5317STDY7887617,L CLP G9,PL2_3101 G9,liver CLP G9,X5317STDY7887617,19 pcw,female
172,5317STDY7887618,L CLP G10,PL2_3101 G10,liver CLP G10,X5317STDY7887618,19 pcw,female
173,5317STDY7887619,L CLP G11,PL2_3101 G11,liver CLP G11,X5317STDY7887619,19 pcw,female
174,5317STDY7887620,L CLP G12,PL2_3101 G12,liver CLP G12,X5317STDY7887620,19 pcw,female
175,5317STDY7887621,L CLP H1,PL2_3101 H1,liver CLP H1,X5317STDY7887621,19 pcw,female
176,5317STDY7887622,L CLP H2,PL2_3101 H2,liver CLP H2,X5317STDY7887622,19 pcw,female
177,5317STDY7887623,L CLP H3,PL2_3101 H3,liver CLP H3,X5317STDY7887623,19 pcw,female
178,5317STDY7887624,L CLP H4,PL2_3101 H4,liver CLP H4,X5317STDY7887624,19 pcw,female
179,5317STDY7887625,L CLP H5,PL2_3101 H5,liver CLP H5,X5317STDY7887625,19 pcw,female
180,5317STDY7887626,L CLP H6,PL2_3101 H6,liver CLP H6,X5317STDY7887626,19 pcw,female
181,5317STDY7887627,L CLP H7,PL2_3101 H7,liver CLP H7,X5317STDY7887627,19 pcw,female
182,5317STDY7887628,L CLP H8,PL2_3101 H8,liver CLP H8,X5317STDY7887628,19 pcw,female
183,5317STDY7887629,L CLP H9,PL2_3101 H9,liver CLP H9,X5317STDY7887629,19 pcw,female
184,5317STDY7887630,L CLP H10,PL2_3101 H10,liver CLP H10,X5317STDY7887630,19 pcw,female
185,5317STDY7887631,L MPP A1,PL5_1511 A1,liver MPP A1,X5317STDY7887631,20 pcw,male
186,5317STDY7887632,L MPP A2,PL5_1511 A2,liver MPP A2,X5317STDY7887632,20 pcw,male
187,5317STDY7887633,L MPP A3,PL5_1511 A3,liver MPP A3,X5317STDY7887633,20 pcw,male
188,5317STDY7887634,L MPP A4,PL5_1511 A4,liver MPP A4,X5317STDY7887634,20 pcw,male
189,5317STDY7887635,L MPP A5,PL5_1511 A5,liver MPP A5,X5317STDY7887635,20 pcw,male
190,5317STDY7887636,F MPP A6,PL5_1511 A6,femur MPP A6,X5317STDY7887636,20 pcw,male
191,5317STDY7887637,F MPP A7,PL5_1511 A7,femur MPP A7,X5317STDY7887637,20 pcw,male
192,5317STDY7887638,F MPP A8,PL5_1511 A8,femur MPP A8,X5317STDY7887638,20 pcw,male
193,5317STDY7887639,F MPP A9,PL5_1511 A9,femur MPP A9,X5317STDY7887639,20 pcw,male
194,5317STDY7887640,F MPP A10,PL5_1511 A10,femur MPP A10,X5317STDY7887640,20 pcw,male
195,5317STDY7887641,F MPP A11,PL5_1511 A11,femur MPP A11,X5317STDY7887641,20 pcw,male
196,5317STDY7887642,F MPP A12,PL5_1511 A12,femur MPP A12,X5317STDY7887642,20 pcw,male
197,5317STDY7887643,F MPP B1,PL5_1511 B1,femur MPP B1,X5317STDY7887643,20 pcw,male
198,5317STDY7887644,F MPP B2,PL5_1511 B2,femur MPP B2,X5317STDY7887644,20 pcw,male
199,5317STDY7887645,F MPP B3,PL5_1511 B3,femur MPP B3,X5317STDY7887645,20 pcw,male
200,5317STDY7887646,F MPP B4,PL5_1511 B4,femur MPP B4,X5317STDY7887646,20 pcw,male
201,5317STDY7887647,F MPP B5,PL5_1511 B5,femur MPP B5,X5317STDY7887647,20 pcw,male
202,5317STDY7887648,F MPP B6,PL5_1511 B6,femur MPP B6,X5317STDY7887648,20 pcw,male
203,5317STDY7887649,F MPP B7,PL5_1511 B7,femur MPP B7,X5317STDY7887649,20 pcw,male
204,5317STDY7887650,F MPP B8,PL5_1511 B8,femur MPP B8,X5317STDY7887650,20 pcw,male
205,5317STDY7887651,L_proB B9,PL3_1601 B9,liver proB B9,X5317STDY7887651,20 pcw,female
206,5317STDY7887652,L_proB B10,PL3_1601 B10,liver proB B10,X5317STDY7887652,20 pcw,female
207,5317STDY7887653,L_proB B11,PL3_1601 B11,liver proB B11,X5317STDY7887653,20 pcw,female
208,5317STDY7887654,L_proB B12,PL3_1601 B12,liver proB B12,X5317STDY7887654,20 pcw,female
209,5317STDY7887655,L_proB C1,PL3_1601 C1,liver proB C1,X5317STDY7887655,20 pcw,female
210,5317STDY7887656,L_proB C2,PL3_1601 C2,liver proB C2,X5317STDY7887656,20 pcw,female
211,5317STDY7887657,L_proB C3,PL3_1601 C3,liver proB C3,X5317STDY7887657,20 pcw,female
212,5317STDY7887658,L_proB C4,PL3_1601 C4,liver proB C4,X5317STDY7887658,20 pcw,female
213,5317STDY7887659,L_proB C5,PL3_1601 C5,liver proB C5,X5317STDY7887659,20 pcw,female
214,5317STDY7887660,L_proB C6,PL3_1601 C6,liver proB C6,X5317STDY7887660,20 pcw,female
215,5317STDY7887661,L_proB C7,PL3_1601 C7,liver proB C7,X5317STDY7887661,20 pcw,female
216,5317STDY7887662,L_proB C8,PL3_1601 C8,liver proB C8,X5317STDY7887662,20 pcw,female
217,5317STDY7887663,L_proB C9,PL3_1601 C9,liver proB C9,X5317STDY7887663,20 pcw,female
218,5317STDY7887664,L_proB C10,PL3_1601 C10,liver proB C10,X5317STDY7887664,20 pcw,female
219,5317STDY7887665,L_preB D1,PL3_1601 D1,liver preB D1,X5317STDY7887665,20 pcw,female
220,5317STDY7887666,L_preB D2,PL3_1601 D2,liver preB D2,X5317STDY7887666,20 pcw,female
221,5317STDY7887667,L_preB D3,PL3_1601 D3,liver preB D3,X5317STDY7887667,20 pcw,female
222,5317STDY7887668,L_preB D4,PL3_1601 D4,liver preB D4,X5317STDY7887668,20 pcw,female
223,5317STDY7887669,L_preB D5,PL3_1601 D5,liver preB D5,X5317STDY7887669,20 pcw,female
224,5317STDY7887670,L_preB D6,PL3_1601 D6,liver preB D6,X5317STDY7887670,20 pcw,female
225,5317STDY7887671,L_preB D7,PL3_1601 D7,liver preB D7,X5317STDY7887671,20 pcw,female
226,5317STDY7887672,L_preB D8,PL3_1601 D8,liver preB D8,X5317STDY7887672,20 pcw,female
227,5317STDY7887673,L_preB D9,PL3_1601 D9,liver preB D9,X5317STDY7887673,20 pcw,female
228,5317STDY7887674,L_preB D10,PL3_1601 D10,liver preB D10,X5317STDY7887674,20 pcw,female
229,5317STDY7887675,L_preB D11,PL3_1601 D11,liver preB D11,X5317STDY7887675,20 pcw,female
230,5317STDY7887676,L_preB D12,PL3_1601 D12,liver preB D12,X5317STDY7887676,20 pcw,female
231,5317STDY7887677,L_preB E1,PL3_1601 E1,liver preB E1,X5317STDY7887677,20 pcw,female
232,5317STDY7887678,L_preB E2,PL3_1601 E2,liver preB E2,X5317STDY7887678,20 pcw,female
233,5317STDY7887679,L_preB E3,PL3_1601 E3,liver preB E3,X5317STDY7887679,20 pcw,female
234,5317STDY7887680,L_preB E4,PL3_1601 E4,liver preB E4,X5317STDY7887680,20 pcw,female
235,5317STDY7887681,L_preB E5,PL3_1601 E5,liver preB E5,X5317STDY7887681,20 pcw,female
236,5317STDY7887682,L_preB E6,PL3_1601 E6,liver preB E6,X5317STDY7887682,20 pcw,female
237,5317STDY7887683,L_preB E7,PL3_1601 E7,liver preB E7,X5317STDY7887683,20 pcw,female
238,5317STDY7887684,L_preB E8,PL3_1601 E8,liver preB E8,X5317STDY7887684,20 pcw,female
239,5317STDY7887685,L_preB E9,PL3_1601 E9,liver preB E9,X5317STDY7887685,20 pcw,female
240,5317STDY7887686,L_preB E10,PL3_1601 E10,liver preB E10,X5317STDY7887686,20 pcw,female
241,5317STDY7887687,L_preB E11,PL3_1601 E11,liver preB E11,X5317STDY7887687,20 pcw,female
242,5317STDY7887688,L_preB E12,PL3_1601 E12,liver preB E12,X5317STDY7887688,20 pcw,female
243,5317STDY7887689,L_preB F1,PL3_1601 F1,liver preB F1,X5317STDY7887689,20 pcw,female
244,5317STDY7887690,L_preB F2,PL3_1601 F2,liver preB F2,X5317STDY7887690,20 pcw,female
245,5317STDY7887691,L_preB F3,PL3_1601 F3,liver preB F3,X5317STDY7887691,20 pcw,female
246,5317STDY7887692,L_preB F4,PL3_1601 F4,liver preB F4,X5317STDY7887692,20 pcw,female
247,5317STDY7887693,L_preB F5,PL3_1601 F5,liver preB F5,X5317STDY7887693,20 pcw,female
248,5317STDY7887694,L_preB F6,PL3_1601 F6,liver preB F6,X5317STDY7887694,20 pcw,female
249,5317STDY7887695,L_preB F7,PL3_1601 F7,liver preB F7,X5317STDY7887695,20 pcw,female
250,5317STDY7887696,L_preB F8,PL3_1601 F8,liver preB F8,X5317STDY7887696,20 pcw,female
251,5317STDY7887697,L_preB F9,PL3_1601 F9,liver preB F9,X5317STDY7887697,20 pcw,female
252,5317STDY7887698,L_preB F10,PL3_1601 F10,liver preB F10,X5317STDY7887698,20 pcw,female
253,5317STDY7887699,L_preB F11,PL3_1601 F11,liver preB F11,X5317STDY7887699,20 pcw,female
254,5317STDY7887700,L_preB F12,PL3_1601 F12,liver preB F12,X5317STDY7887700,20 pcw,female
255,5317STDY7887701,L_matB G1,PL3_1601 G1,liver matB G1,X5317STDY7887701,20 pcw,female
256,5317STDY7887702,L_matB G2,PL3_1601 G2,liver matB G2,X5317STDY7887702,20 pcw,female
257,5317STDY7887703,L_matB G3,PL3_1601 G3,liver matB G3,X5317STDY7887703,20 pcw,female
258,5317STDY7887704,L_matB G4,PL3_1601 G4,liver matB G4,X5317STDY7887704,20 pcw,female
259,5317STDY7887705,L_matB G5,PL3_1601 G5,liver matB G5,X5317STDY7887705,20 pcw,female
260,5317STDY7887706,L_matB G6,PL3_1601 G6,liver matB G6,X5317STDY7887706,20 pcw,female
261,5317STDY7887707,L_matB G7,PL3_1601 G7,liver matB G7,X5317STDY7887707,20 pcw,female
262,5317STDY7887708,L_matB G8,PL3_1601 G8,liver matB G8,X5317STDY7887708,20 pcw,female
263,5317STDY7887709,L_matB G9,PL3_1601 G9,liver matB G9,X5317STDY7887709,20 pcw,female
264,5317STDY7887710,L_matB G10,PL3_1601 G10,liver matB G10,X5317STDY7887710,20 pcw,female
265,5317STDY7887711,L_matB G11,PL3_1601 G11,liver matB G11,X5317STDY7887711,20 pcw,female
266,5317STDY7887712,L_matB G12,PL3_1601 G12,liver matB G12,X5317STDY7887712,20 pcw,female
267,5317STDY7887713,L_matB H1,PL3_1601 H1,liver matB H1,X5317STDY7887713,20 pcw,female
268,5317STDY7887714,L_matB H2,PL3_1601 H2,liver matB H2,X5317STDY7887714,20 pcw,female
269,5317STDY7887715,L_matB H3,PL3_1601 H3,liver matB H3,X5317STDY7887715,20 pcw,female
270,5317STDY7887716,L_matB H4,PL3_1601 H4,liver matB H4,X5317STDY7887716,20 pcw,female
271,5317STDY7887717,L_matB H5,PL3_1601 H5,liver matB H5,X5317STDY7887717,20 pcw,female
272,5317STDY7887718,L_matB H6,PL3_1601 H6,liver matB H6,X5317STDY7887718,20 pcw,female
273,5317STDY7887719,L_matB H7,PL3_1601 H7,liver matB H7,X5317STDY7887719,20 pcw,female
274,5317STDY7887720,L_matB H8,PL3_1601 H8,liver matB H8,X5317STDY7887720,20 pcw,female
275,5317STDY7887721,L_matB H9,PL3_1601 H9,liver matB H9,X5317STDY7887721,20 pcw,female
276,5317STDY7887722,L_matB H10,PL3_1601 H10,liver matB H10,X5317STDY7887722,20 pcw,female
277,5317STDY7887723,L_matB H11,PL3_1601 H11,liver matB H11,X5317STDY7887723,20 pcw,female
278,5317STDY7887724,L_matB H12,PL3_1601 H12,liver matB H12,X5317STDY7887724,20 pcw,female