Sample	uniquely_mapped_percent	num_splices	num_GCAG_splices	insertion_length	deletion_length	unmapped_tooshort_percent	avg_mapped_read_length	deletion_rate	mismatch_rate	avg_input_read_length	num_ATAC_splices	num_annotated_splices	num_GTAG_splices	uniquely_mapped	multimapped_toomany	unmapped_mismatches	unmapped_mismatches_percent	total_reads	unmapped_other	insertion_rate	unmapped_other_percent	multimapped_percent	multimapped	num_noncanonical_splices	unmapped_tooshort	multimapped_toomany_percent
5317STDY7723285	58.66	741129.0	5060.0	1.24	1.52	6.15	148.21	0.01	0.34	150.0	373.0	739482.0	729309.0	2032387.0	6984.0	0	0.0	3464858.0	2425	0.01	0.07	34.92	1210052.0	6387.0	213010	0.2
5317STDY7723286	58.25	454334.0	2687.0	1.24	1.47	7.25	147.95	0.01	0.36	150.0	503.0	453371.0	448570.0	989306.0	4665.0	0	0.0	1698302.0	509	0.01	0.03	34.2	580823.0	2574.0	122999	0.27
5317STDY7723287	45.66	339178.0	2328.0	1.3	1.62	15.1	147.56	0.01	0.32	150.0	223.0	338333.0	333392.0	964150.0	6076.0	0	0.0	2111357.0	1267	0.01	0.06	38.88	821001.0	3235.0	318863	0.29
5317STDY7723288	57.92	895905.0	6440.0	1.24	1.48	7.3	148.03	0.01	0.32	150.0	724.0	894284.0	883860.0	2147583.0	9796.0	0	0.0	3707592.0	2226	0.01	0.06	34.45	1277121.0	4881.0	270866	0.26
5317STDY7723289	47.24	385078.0	3477.0	1.27	1.41	28.25	147.51	0.01	0.36	150.0	177.0	383656.0	374581.0	1376452.0	4989.0	0	0.0	2913804.0	1748	0.01	0.06	24.28	707434.0	6843.0	823181	0.17
5317STDY7723290	43.63	1559.0	6.0	1.3	1.39	32.13	146.73	0.01	0.47	150.0	1.0	1546.0	1542.0	4394.0	22.0	0	0.0	10070.0	4	0.01	0.04	23.98	2415.0	10.0	3235	0.22
5317STDY7723291	41.3	1417.0	6.0	1.38	1.34	38.81	146.73	0.01	0.62	150.0	2.0	1412.0	1404.0	3640.0	21.0	0	0.0	8814.0	3	0.01	0.03	19.62	1729.0	5.0	3421	0.24
5317STDY7723292	45.62	1464.0	6.0	1.25	1.55	28.92	146.93	0.01	0.44	150.0	1.0	1451.0	1443.0	4002.0	30.0	0	0.0	8773.0	6	0.01	0.07	25.05	2198.0	14.0	2537	0.34
5317STDY7723293	42.68	1065.0	10.0	1.09	1.82	31.01	146.84	0.0	0.45	150.0	0.0	1058.0	1048.0	3057.0	19.0	0	0.0	7162.0	2	0.01	0.03	26.01	1863.0	7.0	2221	0.27
5317STDY7723294	35.42	1213.0	3.0	1.23	1.39	44.34	146.53	0.01	0.51	150.0	0.0	1204.0	1205.0	3321.0	13.0	0	0.0	9376.0	4	0.01	0.04	20.06	1881.0	5.0	4157	0.14
5317STDY7723295	46.11	1224.0	1.0	1.1	1.53	32.48	146.57	0.01	0.49	150.0	1.0	1216.0	1217.0	3173.0	9.0	0	0.0	6881.0	1	0.0	0.01	21.26	1463.0	5.0	2235	0.13
5317STDY7723296	33.92	457.0	5.0	1.44	1.36	47.26	147.42	0.01	0.53	150.0	0.0	454.0	449.0	1177.0	6.0	0	0.0	3470.0	1	0.01	0.03	18.62	646.0	3.0	1640	0.17
5317STDY7723297	55.47	705290.0	6688.0	1.32	1.42	13.22	148.04	0.01	0.35	150.0	1225.0	703438.0	690510.0	1990108.0	6749.0	0	0.0	3587831.0	1077	0.01	0.03	31.09	1115391.0	6867.0	474506	0.19
5317STDY7723298	60.64	213868.0	1239.0	1.27	1.44	9.93	147.53	0.01	0.39	150.0	122.0	213335.0	211751.0	505902.0	1733.0	0	0.0	834212.0	333	0.01	0.04	29.19	243471.0	756.0	82773	0.21
5317STDY7723299	59.47	384283.0	2461.0	1.3	1.54	12.03	147.43	0.01	0.38	150.0	195.0	383413.0	379328.0	1087138.0	3779.0	0	0.0	1828114.0	549	0.01	0.03	28.26	516661.0	2299.0	219987	0.21
5317STDY7723300	59.34	507196.0	5366.0	1.32	1.49	12.83	148.21	0.01	0.36	150.0	476.0	506182.0	496155.0	1709050.0	5196.0	0	0.0	2880015.0	3166	0.01	0.11	27.55	793323.0	5199.0	369280	0.18
5317STDY7723301	61.93	191754.0	1203.0	1.29	1.48	7.1	147.74	0.01	0.39	150.0	163.0	191155.0	189229.0	579087.0	2389.0	0	0.0	935086.0	655	0.01	0.07	30.64	286533.0	1159.0	66422	0.26
5317STDY7723302	59.19	593191.0	4755.0	1.28	1.53	11.46	148.15	0.01	0.34	150.0	406.0	591854.0	583175.0	1880903.0	6574.0	0	0.0	3177714.0	2225	0.01	0.07	29.07	923793.0	4855.0	364219	0.21
5317STDY7723303	63.17	150641.0	1017.0	1.23	1.61	7.09	147.97	0.01	0.39	150.0	115.0	150059.0	148599.0	402778.0	1159.0	0	0.0	637621.0	191	0.01	0.03	29.53	188282.0	910.0	45211	0.18
5317STDY7723304	59.81	450890.0	2682.0	1.26	1.49	5.13	147.95	0.01	0.36	150.0	363.0	449946.0	445891.0	1086218.0	5761.0	0	0.0	1816071.0	182	0.01	0.01	34.73	630692.0	1954.0	93218	0.32
5317STDY7723305	64.12	583748.0	3492.0	1.28	1.52	4.02	148.23	0.01	0.35	150.0	377.0	582558.0	576581.0	1584558.0	3393.0	0	0.0	2471108.0	742	0.01	0.03	31.69	783049.0	3298.0	99366	0.14
5317STDY7723306	58.41	41733.0	215.0	1.23	1.44	9.74	147.09	0.01	0.42	150.0	20.0	41541.0	41277.0	126437.0	583.0	0	0.0	216453.0	216	0.01	0.1	31.48	68149.0	221.0	21068	0.27
5317STDY7723307	57.73	52712.0	295.0	1.26	1.46	8.58	147.39	0.01	0.41	150.0	37.0	52485.0	52103.0	146352.0	1329.0	0	0.0	253522.0	76	0.01	0.03	33.14	84014.0	277.0	21751	0.52
5317STDY7723308	24.6	152253.0	1127.0	1.24	1.59	61.26	148.06	0.01	0.39	150.0	52.0	151943.0	149587.0	432433.0	1544.0	0	0.0	1757742.0	527	0.01	0.03	14.03	246559.0	1487.0	1076679	0.09
5317STDY7723309	58.32	27060.0	152.0	1.25	1.43	8.81	147.49	0.01	0.44	150.0	19.0	26921.0	26769.0	89217.0	438.0	0	0.0	152973.0	31	0.01	0.02	32.56	49805.0	120.0	13482	0.29
5317STDY7723310	66.79	349056.0	2277.0	1.26	1.47	5.39	147.96	0.01	0.4	150.0	180.0	348067.0	344722.0	947993.0	2015.0	0	0.0	1419432.0	567	0.01	0.04	27.64	392386.0	1877.0	76471	0.14
5317STDY7723311	71.29	364323.0	2583.0	1.32	1.45	6.46	148.1	0.01	0.4	150.0	253.0	363445.0	359502.0	878525.0	2027.0	0	0.0	1232254.0	370	0.01	0.03	22.05	271738.0	1985.0	79594	0.16
5317STDY7723312	56.71	31317.0	109.0	1.24	1.49	10.8	147.21	0.01	0.44	150.0	15.0	31249.0	31098.0	76889.0	288.0	0	0.0	135572.0	14	0.01	0.01	32.26	43732.0	95.0	14649	0.21
5317STDY7723313	63.84	63000.0	726.0	1.27	1.48	11.84	147.96	0.01	0.43	150.0	50.0	62745.0	61672.0	224381.0	742.0	0	0.0	351481.0	211	0.01	0.06	24.05	84543.0	552.0	41604	0.21
5317STDY7723314	54.24	327755.0	2390.0	1.19	1.43	5.7	147.58	0.01	0.37	150.0	126.0	326837.0	322587.0	1309877.0	7670.0	0	0.0	2415097.0	1207	0.01	0.05	39.7	958768.0	2652.0	137575	0.32
5317STDY7723315	64.21	447741.0	3006.0	1.25	1.53	5.58	148.17	0.01	0.38	150.0	274.0	446802.0	441637.0	1216893.0	3551.0	0	0.0	1895268.0	758	0.01	0.04	29.98	568282.0	2824.0	105784	0.19
5317STDY7723316	62.49	393746.0	2057.0	1.24	1.44	6.83	147.76	0.01	0.38	150.0	269.0	392989.0	390055.0	1123820.0	4344.0	0	0.0	1798386.0	719	0.01	0.04	30.4	546667.0	1365.0	122836	0.24
5317STDY7723317	68.56	482015.0	3887.0	1.24	1.56	8.52	147.97	0.01	0.37	150.0	401.0	480976.0	474936.0	1354460.0	2177.0	0	0.0	1975639.0	790	0.01	0.04	22.77	449897.0	2791.0	168315	0.11
5317STDY7723318	68.92	127327.0	886.0	1.26	1.57	6.89	147.75	0.01	0.39	150.0	123.0	126878.0	125795.0	290603.0	688.0	0	0.0	421628.0	127	0.01	0.03	23.99	101139.0	523.0	29071	0.16
5317STDY7723319	59.35	78085.0	433.0	1.24	1.49	8.79	147.65	0.01	0.42	150.0	51.0	77812.0	77298.0	182417.0	471.0	0	0.0	307341.0	31	0.01	0.01	31.7	97414.0	303.0	27008	0.15
5317STDY7723320	67.91	65156.0	385.0	1.23	1.5	6.67	147.67	0.01	0.44	150.0	41.0	64860.0	64410.0	185583.0	389.0	0	0.0	273268.0	109	0.01	0.04	25.23	68948.0	320.0	18239	0.14
5317STDY7723321	62.38	223505.0	1467.0	1.25	1.45	6.36	147.92	0.01	0.4	150.0	161.0	223011.0	221270.0	500281.0	1698.0	0	0.0	802023.0	241	0.01	0.03	31.02	248762.0	607.0	51041	0.21
5317STDY7723322	48.76	130819.0	581.0	1.19	1.42	8.88	147.29	0.01	0.4	150.0	63.0	130533.0	129682.0	415745.0	1598.0	0	0.0	852696.0	256	0.01	0.03	42.15	359380.0	493.0	75717	0.19
5317STDY7723323	59.17	15709.0	115.0	1.21	1.55	14.05	147.23	0.01	0.46	150.0	13.0	15627.0	15515.0	39735.0	120.0	0	0.0	67154.0	13	0.01	0.02	26.58	17852.0	66.0	9434	0.18
5317STDY7723324	62.82	449871.0	3410.0	1.27	1.6	7.51	148.26	0.01	0.37	150.0	210.0	449004.0	443413.0	1176568.0	3923.0	0	0.0	1872850.0	1310	0.01	0.07	29.39	550477.0	2838.0	140572	0.21
5317STDY7723325	67.21	428367.0	3068.0	1.23	1.54	5.87	147.78	0.01	0.36	150.0	535.0	427608.0	422481.0	1143511.0	2381.0	0	0.0	1701487.0	851	0.01	0.05	26.74	454895.0	2283.0	99849	0.14
5317STDY7723326	60.28	253240.0	1727.0	1.24	1.45	5.74	147.71	0.01	0.4	150.0	214.0	252632.0	250156.0	719308.0	3785.0	0	0.0	1193262.0	119	0.01	0.01	33.65	401492.0	1143.0	68558	0.32
5317STDY7723327	60.13	354515.0	2059.0	1.24	1.52	7.47	147.74	0.01	0.38	150.0	241.0	353566.0	349552.0	1009928.0	3405.0	0	0.0	1679636.0	840	0.01	0.05	32.15	540036.0	2663.0	125427	0.2
5317STDY7723328	56.28	30941.0	164.0	1.33	1.65	11.69	147.07	0.01	0.41	150.0	25.0	30807.0	30576.0	97685.0	352.0	0	0.0	173580.0	87	0.01	0.05	31.78	55169.0	176.0	20287	0.2
5317STDY7723329	70.1	350627.0	2100.0	1.22	1.61	7.15	147.95	0.01	0.38	150.0	279.0	349895.0	346784.0	716517.0	1031.0	0	0.0	1022127.0	409	0.01	0.04	22.61	231076.0	1464.0	73094	0.1
5317STDY7723330	65.69	66185.0	471.0	1.39	1.55	10.58	148.0	0.01	0.41	150.0	35.0	65880.0	65312.0	157522.0	423.0	0	0.0	239794.0	72	0.01	0.03	23.53	56429.0	367.0	25348	0.18
5317STDY7723331	58.32	30559.0	214.0	1.21	1.54	13.5	147.62	0.01	0.44	150.0	24.0	30353.0	30092.0	91011.0	343.0	0	0.0	156054.0	78	0.01	0.05	27.91	43547.0	229.0	21075	0.22
5317STDY7723332	64.29	352956.0	2313.0	1.3	1.49	5.43	148.09	0.01	0.38	150.0	283.0	352095.0	347960.0	1054521.0	5023.0	0	0.0	1640274.0	820	0.01	0.05	29.92	490839.0	2400.0	89071	0.31
5317STDY7723333	69.97	339276.0	2425.0	1.22	1.48	6.72	148.13	0.01	0.41	150.0	325.0	338403.0	335180.0	764954.0	2521.0	0	0.0	1093310.0	109	0.01	0.01	23.07	252235.0	1346.0	73491	0.23
5317STDY7723334	67.37	313871.0	2309.0	1.25	1.52	5.69	148.25	0.01	0.36	150.0	333.0	313035.0	309484.0	770320.0	1756.0	0	0.0	1143375.0	229	0.01	0.02	26.76	305942.0	1745.0	65128	0.15
5317STDY7723335	64.39	53521.0	305.0	1.3	1.56	8.49	147.89	0.01	0.42	150.0	36.0	53314.0	52965.0	114636.0	290.0	0	0.0	178025.0	71	0.01	0.04	26.91	47909.0	215.0	15119	0.16
5317STDY7723336	54.27	30153.0	217.0	1.25	1.45	9.93	147.64	0.01	0.43	150.0	24.0	29989.0	29735.0	92981.0	412.0	0	0.0	171327.0	51	0.01	0.03	35.53	60870.0	177.0	17013	0.24
5317STDY7723337	56.29	19381.0	122.0	1.2	1.45	16.43	147.33	0.01	0.44	150.0	17.0	19275.0	19151.0	47657.0	241.0	0	0.0	84658.0	25	0.01	0.03	26.96	22824.0	91.0	13911	0.28
5317STDY7723338	63.35	223639.0	1806.0	1.31	1.5	7.24	148.13	0.01	0.4	150.0	145.0	222875.0	219922.0	696884.0	2487.0	0	0.0	1100043.0	440	0.01	0.04	29.14	320595.0	1766.0	79637	0.23
5317STDY7723339	59.62	36459.0	264.0	1.25	1.42	11.51	147.74	0.01	0.43	150.0	34.0	36310.0	36014.0	91944.0	292.0	0	0.0	154228.0	77	0.01	0.05	28.63	44163.0	147.0	17752	0.19
5317STDY7723340	62.68	40444.0	284.0	1.3	1.53	11.34	147.76	0.01	0.45	150.0	31.0	40271.0	39841.0	110381.0	340.0	0	0.0	176112.0	141	0.01	0.08	25.71	45279.0	288.0	19971	0.19
5317STDY7723341	62.91	72496.0	526.0	1.23	1.52	8.22	147.69	0.01	0.43	150.0	35.0	72131.0	71550.0	197618.0	614.0	0	0.0	314128.0	94	0.01	0.03	28.64	89952.0	385.0	25850	0.2
5317STDY7723342	59.51	206695.0	1488.0	1.25	1.62	8.64	147.79	0.01	0.39	150.0	95.0	206081.0	203550.0	615705.0	3773.0	0	0.0	1034595.0	517	0.01	0.05	31.43	325202.0	1562.0	89398	0.36
5317STDY7723343	67.66	52821.0	366.0	1.29	1.47	9.17	147.89	0.01	0.39	150.0	62.0	52618.0	52067.0	139875.0	342.0	0	0.0	206723.0	83	0.01	0.04	22.96	47468.0	326.0	18955	0.17
5317STDY7723344	65.73	343853.0	2633.0	1.26	1.44	5.18	148.1	0.01	0.38	150.0	256.0	343079.0	339284.0	890631.0	2497.0	0	0.0	1355073.0	677	0.01	0.05	28.87	391161.0	1680.0	70107	0.18
5317STDY7723345	65.99	533658.0	3590.0	1.29	1.54	5.66	148.21	0.01	0.38	150.0	645.0	532414.0	526629.0	1240731.0	2689.0	0	0.0	1880214.0	752	0.01	0.04	28.17	529632.0	2794.0	106410	0.14
5317STDY7723346	63.81	427345.0	3193.0	1.26	1.53	6.06	148.02	0.01	0.36	150.0	370.0	426326.0	420544.0	1492239.0	5071.0	0	0.0	2338438.0	1169	0.01	0.05	29.86	698277.0	3238.0	141682	0.22
5317STDY7723347	57.47	33602.0	225.0	1.28	1.62	9.68	147.72	0.01	0.42	150.0	8.0	33432.0	33215.0	98439.0	432.0	0	0.0	171296.0	69	0.01	0.04	32.56	55775.0	154.0	16581	0.25
5317STDY7723348	66.99	66296.0	481.0	1.26	1.48	11.21	147.45	0.01	0.38	150.0	76.0	66083.0	65473.0	153305.0	435.0	0	0.0	228853.0	69	0.01	0.03	21.58	49388.0	266.0	25656	0.19
5317STDY7723349	65.37	361889.0	2421.0	1.26	1.5	5.34	147.97	0.01	0.38	150.0	259.0	361067.0	357636.0	906135.0	2719.0	0	0.0	1386218.0	416	0.01	0.03	29.06	402847.0	1573.0	74101	0.2
5317STDY7723350	63.69	346756.0	3157.0	1.23	1.49	5.89	148.21	0.01	0.37	150.0	255.0	345905.0	340979.0	912087.0	2802.0	0	0.0	1432124.0	286	0.01	0.02	30.21	432609.0	2365.0	84340	0.2
5317STDY7723351	64.32	117818.0	644.0	1.29	1.55	7.94	148.0	0.01	0.4	150.0	80.0	117482.0	116450.0	289367.0	964.0	0	0.0	449862.0	180	0.01	0.04	27.48	123632.0	644.0	35719	0.21
5317STDY7723352	64.75	281532.0	2242.0	1.33	1.49	7.0	148.2	0.01	0.38	150.0	247.0	280755.0	276258.0	1057715.0	2974.0	0	0.0	1633460.0	653	0.01	0.04	28.03	457798.0	2785.0	114320	0.18
5317STDY7723353	68.16	171605.0	1224.0	1.28	1.5	6.46	148.1	0.01	0.41	150.0	155.0	171082.0	169406.0	427562.0	1169.0	0	0.0	627302.0	188	0.01	0.03	25.17	157883.0	820.0	40500	0.19
5317STDY7723354	64.24	94108.0	726.0	1.3	1.48	8.23	147.94	0.01	0.42	150.0	64.0	93765.0	92740.0	265337.0	726.0	0	0.0	413039.0	991	0.01	0.24	27.12	112000.0	578.0	33985	0.18
5317STDY7723355	26.19	303012.0	2137.0	1.41	1.61	68.99	148.08	0.01	0.3	150.0	194.0	302644.0	299934.0	547839.0	488.0	0	0.0	2092124.0	0	0.0	0.0	4.79	100270.0	747.0	1443527	0.02
5317STDY7723356	80.97	409410.0	2879.0	1.28	1.63	8.19	148.09	0.01	0.38	150.0	528.0	408671.0	404389.0	963247.0	469.0	0	0.0	1189658.0	238	0.01	0.02	10.78	128274.0	1614.0	97430	0.04
5317STDY7723357	71.99	968127.0	5949.0	1.29	1.67	11.47	147.9	0.01	0.31	150.0	496.0	966141.0	957151.0	2147683.0	4142.0	0	0.0	2983320.0	597	0.01	0.02	16.38	488764.0	4531.0	342134	0.14
5317STDY7723358	74.9	694650.0	5616.0	1.31	1.72	6.81	148.25	0.01	0.35	150.0	825.0	693564.0	685791.0	1567794.0	2718.0	0	0.0	2093320.0	419	0.01	0.02	18.14	379763.0	2418.0	142626	0.13
5317STDY7723359	72.29	163662.0	1377.0	1.35	1.71	11.27	148.09	0.01	0.4	150.0	46.0	163318.0	161350.0	457953.0	644.0	0	0.0	633476.0	380	0.01	0.06	16.27	103097.0	889.0	71402	0.1
5317STDY7723360	63.08	268204.0	1890.0	1.34	1.74	9.7	148.23	0.01	0.38	150.0	94.0	267570.0	264225.0	742864.0	2102.0	0	0.0	1177608.0	1767	0.01	0.15	26.89	316619.0	1995.0	114256	0.18
5317STDY7723361	56.79	54683.0	426.0	1.28	1.46	10.95	147.79	0.01	0.42	150.0	37.0	54455.0	53845.0	151431.0	617.0	0	0.0	266669.0	133	0.01	0.05	31.98	85286.0	375.0	29202	0.23
5317STDY7723362	62.56	260139.0	1609.0	1.28	1.45	9.16	147.77	0.01	0.39	150.0	249.0	259234.0	255856.0	947597.0	3690.0	0	0.0	1514672.0	1061	0.01	0.07	27.96	423546.0	2425.0	138778	0.24
5317STDY7723363	60.66	215004.0	1123.0	1.23	1.36	8.06	147.54	0.01	0.39	150.0	115.0	214554.0	213066.0	513338.0	2263.0	0	0.0	846245.0	254	0.01	0.03	30.99	262249.0	700.0	68141	0.27
5317STDY7723364	63.9	348809.0	2259.0	1.31	1.37	8.65	147.75	0.01	0.37	150.0	273.0	348193.0	345121.0	716993.0	1576.0	0	0.0	1122091.0	224	0.01	0.02	27.3	306314.0	1156.0	96984	0.14
5317STDY7723365	65.38	495558.0	4175.0	1.31	1.47	7.15	147.79	0.01	0.37	150.0	194.0	494405.0	488513.0	1137267.0	2499.0	0	0.0	1739605.0	871	0.01	0.05	27.27	474460.0	2676.0	124508	0.14
5317STDY7723366	67.02	777770.0	5482.0	1.28	1.59	6.52	147.98	0.01	0.34	150.0	648.0	775998.0	767560.0	1706465.0	4518.0	0	0.0	2546045.0	1019	0.01	0.04	26.23	667918.0	4080.0	166125	0.18
5317STDY7723367	55.11	47150.0	412.0	1.24	1.41	31.28	147.45	0.01	0.31	150.0	14.0	47107.0	46555.0	87987.0	170.0	0	0.0	159662.0	16	0.0	0.01	13.5	21555.0	169.0	49934	0.11
5317STDY7723368	54.45	45573.0	221.0	1.54	1.61	30.13	147.48	0.01	0.28	150.0	14.0	45503.0	45175.0	83429.0	157.0	0	0.0	153230.0	15	0.01	0.01	15.31	23456.0	163.0	46173	0.1
5317STDY7723369	48.5	6233.0	36.0	1.07	1.19	22.13	147.14	0.01	0.31	150.0	1.0	6226.0	6191.0	12792.0	37.0	0	0.0	26374.0	11	0.02	0.04	29.19	7698.0	5.0	5836	0.14
5317STDY7723370	33.29	5992.0	30.0	1.1	1.28	36.31	146.91	0.01	0.37	150.0	1.0	5978.0	5891.0	13942.0	56.0	0	0.0	41884.0	13	0.02	0.03	30.24	12665.0	70.0	15208	0.13
5317STDY7723371	40.94	88618.0	2597.0	1.44	1.41	48.4	147.29	0.01	0.32	150.0	7.0	88304.0	84205.0	318155.0	318.0	0	0.0	777118.0	0	0.01	0.0	10.61	82459.0	1809.0	376186	0.04
5317STDY7723372	45.8	205758.0	1615.0	1.24	1.28	42.84	147.88	0.01	0.28	150.0	53.0	204429.0	202308.0	706829.0	1269.0	0	0.0	1543305.0	309	0.01	0.02	11.26	173714.0	1782.0	661184	0.08
5317STDY7723373	44.4	441754.0	4500.0	1.28	1.5	40.27	147.55	0.01	0.29	150.0	908.0	441134.0	433657.0	1100046.0	4662.0	0	0.0	2477512.0	991	0.01	0.04	15.11	374256.0	2689.0	997557	0.19
5317STDY7723374	55.51	592681.0	5118.0	1.24	1.53	30.3	148.06	0.01	0.33	150.0	102.0	591475.0	581634.0	1648381.0	2789.0	0	0.0	2969333.0	1782	0.01	0.06	14.03	416522.0	5827.0	899859	0.09
5317STDY7723375	68.17	378898.0	2568.0	1.22	1.68	14.54	148.09	0.01	0.37	150.0	224.0	378202.0	374095.0	971338.0	1426.0	0	0.0	1424935.0	713	0.01	0.05	17.14	244230.0	2011.0	207228	0.1
5317STDY7723376	64.44	185293.0	1340.0	1.24	1.61	13.21	147.96	0.01	0.38	150.0	78.0	184642.0	182493.0	608338.0	1502.0	0	0.0	944003.0	661	0.01	0.07	22.12	208790.0	1382.0	124712	0.16
5317STDY7723377	55.79	251881.0	2197.0	1.34	1.73	22.28	147.25	0.01	0.36	150.0	178.0	251107.0	246910.0	781213.0	2528.0	0	0.0	1400355.0	700	0.01	0.05	21.7	303819.0	2596.0	312095	0.18
5317STDY7723378	63.66	249134.0	2415.0	1.29	1.65	15.87	147.54	0.01	0.35	150.0	32.0	248499.0	244336.0	770754.0	1981.0	0	0.0	1210756.0	1210	0.01	0.1	20.21	244726.0	2351.0	192085	0.16
5317STDY7723379	60.0	224204.0	1430.0	1.34	1.62	14.76	147.33	0.01	0.34	150.0	282.0	223822.0	220612.0	647933.0	2241.0	0	0.0	1079857.0	108	0.01	0.01	25.02	270171.0	1880.0	159404	0.21
5317STDY7723380	61.66	349996.0	3811.0	1.31	1.67	17.83	147.5	0.01	0.35	150.0	394.0	348650.0	342444.0	990068.0	2926.0	0	0.0	1605757.0	482	0.01	0.03	20.3	325965.0	3347.0	286316	0.18
5317STDY7723381	64.06	326010.0	2853.0	1.3	1.78	16.09	147.46	0.01	0.36	150.0	340.0	325144.0	318817.0	1017858.0	4764.0	0	0.0	1589026.0	636	0.01	0.04	19.51	310008.0	4000.0	255760	0.3
5317STDY7723382	1.78	6508.0	58.0	1.24	1.59	97.07	146.85	0.01	0.44	150.0	3.0	6452.0	6406.0	22870.0	179.0	0	0.0	1284330.0	128	0.01	0.01	1.13	14473.0	41.0	1246680	0.01
5317STDY7723383	69.37	399162.0	2439.0	1.37	1.43	9.86	147.63	0.01	0.34	150.0	154.0	398395.0	394084.0	1172460.0	3165.0	0	0.0	1690190.0	1859	0.01	0.11	20.47	346035.0	2485.0	166671	0.19
5317STDY7723384	69.51	358388.0	2577.0	1.26	1.57	11.76	147.6	0.01	0.36	150.0	88.0	357410.0	352058.0	976357.0	2270.0	0	0.0	1404664.0	562	0.01	0.04	18.54	260376.0	3665.0	165099	0.16
5317STDY7723385	68.48	577289.0	3877.0	1.32	1.62	8.59	147.51	0.01	0.35	150.0	661.0	576197.0	569537.0	1273179.0	4425.0	0	0.0	1859231.0	743	0.01	0.04	22.66	421221.0	3214.0	159663	0.24
5317STDY7723386	71.19	492492.0	2938.0	1.29	1.63	7.43	147.84	0.01	0.36	150.0	264.0	491596.0	486511.0	1126914.0	2851.0	0	0.0	1583027.0	1584	0.01	0.1	21.1	334013.0	2779.0	117665	0.18
5317STDY7723387	69.51	495939.0	3669.0	1.32	1.53	10.87	147.62	0.01	0.33	150.0	287.0	494944.0	488050.0	1172859.0	1836.0	0	0.0	1687377.0	1349	0.01	0.08	19.44	327992.0	3933.0	183341	0.11
5317STDY7723388	72.12	181468.0	817.0	1.4	1.42	5.7	147.29	0.01	0.33	150.0	114.0	181029.0	180006.0	312475.0	755.0	0	0.0	433273.0	43	0.01	0.01	22.0	95336.0	531.0	24664	0.17
5317STDY7723389	68.26	414189.0	3540.0	1.28	1.55	9.66	147.54	0.01	0.34	150.0	236.0	413115.0	407560.0	1109976.0	2695.0	0	0.0	1626043.0	1301	0.01	0.08	21.83	354935.0	2853.0	157136	0.17
5317STDY7723390	73.17	430339.0	2574.0	1.24	1.53	7.13	147.12	0.01	0.32	150.0	151.0	429263.0	425276.0	992189.0	1317.0	0	0.0	1356012.0	542	0.01	0.04	19.57	265321.0	2338.0	96643	0.1
5317STDY7723391	74.2	318452.0	2173.0	1.34	1.59	7.55	147.21	0.01	0.33	150.0	210.0	317810.0	314466.0	819344.0	1507.0	0	0.0	1104188.0	221	0.01	0.02	18.09	199701.0	1603.0	83415	0.14
5317STDY7723392	70.06	367565.0	3765.0	1.31	1.35	9.62	147.41	0.01	0.33	150.0	292.0	366658.0	361146.0	1032223.0	3038.0	0	0.0	1473367.0	295	0.01	0.02	20.1	296125.0	2362.0	141686	0.21
5317STDY7723393	66.8	505648.0	3078.0	1.27	1.57	10.39	147.39	0.01	0.33	150.0	601.0	504703.0	499137.0	1299118.0	3436.0	0	0.0	1944876.0	779	0.01	0.04	22.59	439293.0	2832.0	202250	0.18
5317STDY7723394	69.08	442543.0	3121.0	1.33	1.48	10.63	147.37	0.01	0.34	150.0	308.0	441392.0	435851.0	1270653.0	5564.0	0	0.0	1839493.0	1103	0.01	0.06	19.94	366708.0	3263.0	195465	0.3
5317STDY7723395	71.73	571472.0	3453.0	1.27	1.62	7.38	147.46	0.01	0.32	150.0	475.0	570270.0	565095.0	1332068.0	3049.0	0	0.0	1857001.0	371	0.01	0.02	20.71	384577.0	2449.0	136936	0.16
5317STDY7723396	71.7	496564.0	2502.0	1.28	1.62	6.86	147.05	0.01	0.33	150.0	310.0	495383.0	491439.0	1197751.0	2456.0	0	0.0	1670427.0	668	0.01	0.04	21.25	354986.0	2313.0	114566	0.15
5317STDY7723397	71.62	541526.0	4844.0	1.38	1.5	9.62	147.67	0.01	0.32	150.0	619.0	540160.0	532150.0	1300935.0	3600.0	0	0.0	1816458.0	726	0.01	0.04	18.53	336576.0	3913.0	174621	0.2
5317STDY7723398	68.57	348794.0	3111.0	1.28	1.63	8.89	147.56	0.01	0.34	150.0	66.0	348154.0	343532.0	809194.0	1786.0	0	0.0	1180157.0	236	0.01	0.02	22.37	264059.0	2085.0	104882	0.15
5317STDY7723399	73.6	589842.0	3781.0	1.23	1.5	7.41	147.59	0.01	0.32	150.0	705.0	588580.0	582238.0	1271579.0	2152.0	0	0.0	1727677.0	864	0.01	0.05	18.81	325013.0	3118.0	128069	0.12
5317STDY7723400	74.02	629201.0	3458.0	1.27	1.65	6.61	147.24	0.01	0.32	150.0	333.0	627751.0	622372.0	1329070.0	3395.0	0	0.0	1795523.0	359	0.01	0.02	19.16	344104.0	3038.0	118595	0.19
5317STDY7723401	73.7	549820.0	3882.0	1.24	1.44	6.27	147.57	0.01	0.33	150.0	711.0	548674.0	542556.0	1089792.0	1952.0	0	0.0	1478588.0	592	0.01	0.04	19.85	293494.0	2671.0	92758	0.13
5317STDY7723402	75.73	364272.0	3072.0	1.26	1.66	6.03	147.38	0.01	0.32	150.0	264.0	363547.0	359194.0	779745.0	1536.0	0	0.0	1029599.0	309	0.01	0.03	18.06	185907.0	1742.0	62102	0.15
5317STDY7723403	78.38	506131.0	2283.0	1.41	1.57	6.38	147.21	0.01	0.32	150.0	396.0	505186.0	501377.0	1056123.0	2005.0	0	0.0	1347419.0	135	0.01	0.01	15.08	203167.0	2075.0	85989	0.15
5317STDY7723404	74.93	335648.0	2623.0	1.37	1.39	8.06	147.62	0.01	0.37	150.0	195.0	334775.0	329251.0	891460.0	2063.0	0	0.0	1189770.0	1190	0.01	0.1	16.74	199167.0	3579.0	95890	0.17
5317STDY7723405	40.84	733.0	2.0	1.5	2.09	41.99	146.64	0.01	0.54	150.0	0.0	728.0	728.0	1907.0	10.0	0	0.0	4670.0	4	0.01	0.09	16.87	788.0	3.0	1961	0.21
5317STDY7723406	67.77	384175.0	3422.0	1.26	1.53	9.01	147.31	0.01	0.36	150.0	429.0	383095.0	377900.0	1108431.0	3047.0	0	0.0	1635481.0	1308	0.01	0.08	22.95	375335.0	2424.0	147360	0.19
5317STDY7723407	43.46	696.0	3.0	2.44	1.86	37.53	146.73	0.01	0.49	150.0	0.0	693.0	689.0	1964.0	16.0	0	0.0	4519.0	1	0.01	0.02	18.63	842.0	4.0	1696	0.35
5317STDY7723408	39.13	727.0	1.0	1.0	1.52	44.36	146.36	0.01	0.52	150.0	0.0	725.0	726.0	1981.0	11.0	0	0.0	5063.0	3	0.01	0.06	16.24	822.0	0.0	2246	0.22
5317STDY7723409	60.9	247497.0	1459.0	1.23	1.39	7.89	146.4	0.01	0.34	150.0	73.0	247061.0	245070.0	688610.0	2230.0	0	0.0	1130763.0	339	0.01	0.03	30.99	350453.0	895.0	89131	0.2
5317STDY7723410	68.66	146786.0	903.0	1.3	1.72	9.13	147.3	0.01	0.33	150.0	54.0	146466.0	144353.0	505007.0	1149.0	0	0.0	735538.0	221	0.01	0.03	22.03	162030.0	1476.0	67131	0.16
5317STDY7723411	70.43	442239.0	2539.0	1.33	1.65	8.16	147.45	0.01	0.34	150.0	333.0	441328.0	436665.0	1097212.0	2712.0	0	0.0	1557783.0	311	0.01	0.02	21.22	330512.0	2702.0	127036	0.17
5317STDY7723412	69.2	422532.0	3404.0	1.27	1.77	9.5	147.52	0.01	0.32	150.0	424.0	420944.0	413870.0	1058408.0	2305.0	0	0.0	1529545.0	459	0.01	0.03	21.12	323053.0	4834.0	145320	0.15
5317STDY7723413	75.05	388673.0	3802.0	1.25	1.54	9.18	147.64	0.01	0.35	150.0	277.0	387185.0	381067.0	1240694.0	2159.0	0	0.0	1653170.0	496	0.01	0.03	15.61	258122.0	3527.0	151699	0.13
5317STDY7723414	70.14	356066.0	2518.0	1.29	1.73	11.29	147.51	0.01	0.35	150.0	207.0	354847.0	349807.0	1005677.0	2595.0	0	0.0	1433764.0	143	0.01	0.01	18.37	263392.0	3534.0	161957	0.18
5317STDY7723415	71.14	339997.0	1351.0	1.27	1.54	7.63	146.47	0.01	0.33	150.0	117.0	339308.0	336830.0	871483.0	3097.0	0	0.0	1225036.0	245	0.01	0.02	20.96	256810.0	1699.0	93401	0.25
5317STDY7723416	70.81	516285.0	3298.0	1.22	1.87	9.1	147.56	0.01	0.34	150.0	240.0	514713.0	508265.0	1394017.0	3037.0	0	0.0	1968803.0	1575	0.01	0.08	19.86	391026.0	4482.0	179148	0.15
5317STDY7723417	74.9	355178.0	3691.0	1.25	1.47	9.69	147.03	0.01	0.37	150.0	110.0	354031.0	348168.0	1256098.0	2558.0	0	0.0	1677032.0	1342	0.01	0.08	15.18	254503.0	3209.0	162531	0.15
5317STDY7723418	69.96	515133.0	3285.0	1.31	1.7	8.47	147.46	0.01	0.34	150.0	364.0	513906.0	508828.0	1315324.0	3653.0	0	0.0	1880161.0	376	0.01	0.02	21.36	401529.0	2656.0	159279	0.19
5317STDY7723419	70.7	456385.0	3178.0	1.27	1.69	10.61	147.48	0.01	0.34	150.0	152.0	455513.0	449129.0	1353197.0	3762.0	0	0.0	1914119.0	2106	0.01	0.11	18.39	351948.0	3926.0	203106	0.2
5317STDY7723420	74.8	515868.0	2545.0	1.23	1.65	7.87	146.86	0.01	0.33	150.0	320.0	514457.0	509714.0	1399773.0	2701.0	0	0.0	1871362.0	562	0.01	0.03	17.15	320937.0	3289.0	147389	0.14
5317STDY7723421	68.75	430156.0	3352.0	1.4	1.61	9.33	147.55	0.01	0.34	150.0	0.0	428959.0	424290.0	1118345.0	4347.0	0	0.0	1626728.0	488	0.01	0.03	21.63	351801.0	2514.0	151747	0.27
5317STDY7723422	71.05	236240.0	2873.0	1.32	1.75	10.42	147.61	0.01	0.34	150.0	64.0	235705.0	230870.0	677154.0	3045.0	0	0.0	953035.0	953	0.01	0.1	18.11	172607.0	2433.0	99276	0.32
5317STDY7723423	71.91	298750.0	1755.0	1.3	1.56	7.79	147.21	0.01	0.33	150.0	215.0	298106.0	294141.0	1022782.0	3138.0	0	0.0	1422294.0	854	0.01	0.06	20.01	284643.0	2639.0	110877	0.22
5317STDY7723424	64.77	281403.0	1659.0	1.27	1.55	7.14	147.07	0.01	0.34	150.0	188.0	280603.0	277716.0	732757.0	1999.0	0	0.0	1131284.0	340	0.01	0.03	27.88	315366.0	1840.0	80822	0.18
5317STDY7723425	73.86	410967.0	2574.0	1.27	1.57	6.64	147.43	0.01	0.33	150.0	261.0	410002.0	406071.0	864546.0	1333.0	0	0.0	1170565.0	468	0.01	0.04	19.35	226492.0	2061.0	77726	0.11
5317STDY7723426	67.23	371693.0	2108.0	1.27	1.54	7.59	146.95	0.01	0.33	150.0	257.0	370446.0	366543.0	965256.0	4122.0	0	0.0	1435764.0	718	0.01	0.05	24.84	356678.0	2785.0	108990	0.29
5317STDY7723427	41.23	720.0	3.0	1.22	2.07	42.85	146.7	0.01	0.48	150.0	1.0	716.0	713.0	2086.0	14.0	0	0.0	5059.0	5	0.01	0.1	15.54	786.0	3.0	2168	0.28
5317STDY7723428	51.69	142442.0	959.0	1.23	1.49	35.76	145.66	0.01	0.65	150.0	586.0	136562.0	119461.0	932593.0	8433.0	0	0.0	1804127.0	7938	0.01	0.44	11.64	210019.0	21436.0	645144	0.47
5317STDY7723429	61.94	33415.0	242.0	1.32	1.7	13.78	146.82	0.01	0.31	150.0	17.0	33316.0	32977.0	86272.0	306.0	0	0.0	139293.0	167	0.01	0.12	23.94	33341.0	179.0	19207	0.22
5317STDY7723430	68.59	360039.0	2365.0	1.28	1.6	8.84	146.8	0.01	0.33	150.0	148.0	359050.0	354744.0	1074635.0	4112.0	0	0.0	1566777.0	783	0.01	0.05	22.26	348724.0	2782.0	138523	0.26
5317STDY7723431	72.35	430002.0	2649.0	1.3	1.63	7.3	147.45	0.01	0.33	150.0	229.0	428931.0	424978.0	1005830.0	2449.0	0	0.0	1390158.0	278	0.01	0.02	20.15	280080.0	2146.0	101521	0.18
5317STDY7723432	72.99	549413.0	3441.0	1.25	1.58	6.07	147.43	0.01	0.32	150.0	465.0	548539.0	544061.0	947492.0	2742.0	0	0.0	1298104.0	260	0.01	0.02	20.71	268780.0	1446.0	78830	0.21
5317STDY7723433	66.13	457345.0	3157.0	1.31	1.59	7.08	147.33	0.01	0.33	150.0	316.0	456386.0	451067.0	1204296.0	4356.0	0	0.0	1821209.0	728	0.01	0.04	26.52	482913.0	2805.0	128916	0.24
5317STDY7723434	71.02	534082.0	3533.0	1.26	1.55	6.98	147.36	0.01	0.33	150.0	235.0	532988.0	527926.0	1122098.0	2198.0	0	0.0	1579904.0	158	0.01	0.01	21.85	345137.0	2388.0	110313	0.14
5317STDY7723435	67.74	291655.0	2555.0	1.26	1.58	10.05	147.0	0.01	0.33	150.0	96.0	290905.0	286238.0	809455.0	2319.0	0	0.0	1194991.0	478	0.01	0.04	21.98	262640.0	2766.0	120099	0.19
5317STDY7723436	69.36	416931.0	2632.0	1.26	1.61	9.85	147.43	0.01	0.32	150.0	192.0	416173.0	411839.0	894093.0	1623.0	0	0.0	1289101.0	386	0.01	0.03	20.64	266116.0	2268.0	126883	0.13
5317STDY7723437	72.94	323141.0	2426.0	1.31	1.62	9.27	147.27	0.01	0.33	150.0	323.0	322377.0	317168.0	860053.0	1588.0	0	0.0	1179064.0	471	0.01	0.04	17.62	207737.0	3224.0	109215	0.13
5317STDY7723438	46.79	1565.0	13.0	1.05	1.38	26.93	145.9	0.01	0.44	150.0	1.0	1558.0	1546.0	4248.0	32.0	0	0.0	9079.0	4	0.01	0.04	25.88	2350.0	5.0	2445	0.35
5317STDY7723439	72.14	480838.0	2589.0	1.25	1.69	7.26	147.01	0.01	0.32	150.0	383.0	479753.0	475725.0	997275.0	3459.0	0	0.0	1382367.0	415	0.01	0.03	20.32	280894.0	2141.0	100324	0.25
5317STDY7723440	69.92	509297.0	3059.0	1.33	1.4	9.44	146.96	0.01	0.36	150.0	304.0	507895.0	502323.0	1329431.0	4920.0	0	0.0	1901243.0	760	0.01	0.04	20.34	386776.0	3611.0	179356	0.26
5317STDY7723441	73.11	520380.0	3137.0	1.25	1.68	7.5	146.85	0.01	0.32	150.0	228.0	519042.0	514066.0	1275502.0	3061.0	0	0.0	1744717.0	698	0.01	0.04	19.18	334565.0	2949.0	130891	0.18
5317STDY7723442	70.21	406758.0	2430.0	1.29	1.62	7.74	147.15	0.01	0.34	150.0	267.0	405620.0	401656.0	918785.0	2739.0	0	0.0	1308606.0	393	0.01	0.03	21.81	285423.0	2405.0	101266	0.21
5317STDY7723443	70.67	505290.0	3389.0	1.25	1.56	8.14	147.18	0.01	0.33	150.0	240.0	504163.0	498509.0	1148709.0	3166.0	0	0.0	1625393.0	650	0.01	0.04	20.96	340636.0	3152.0	132232	0.19
5317STDY7723444	68.18	533281.0	3171.0	1.28	1.58	7.15	147.25	0.01	0.33	150.0	275.0	532347.0	527999.0	1066453.0	3714.0	0	0.0	1564152.0	782	0.01	0.05	24.38	381363.0	1836.0	111840	0.24
5317STDY7723445	67.51	662296.0	3707.0	1.28	1.54	6.59	147.51	0.01	0.32	150.0	453.0	660890.0	655199.0	1320627.0	4857.0	0	0.0	1956326.0	587	0.01	0.03	25.62	501257.0	2937.0	128998	0.25
5317STDY7723446	71.04	800424.0	5275.0	1.26	1.51	7.12	147.43	0.01	0.31	150.0	562.0	798853.0	790157.0	1731402.0	3470.0	0	0.0	2437208.0	731	0.01	0.03	21.67	528122.0	4430.0	173483	0.14
5317STDY7723447	73.63	355216.0	2498.0	1.26	1.48	6.61	147.37	0.01	0.32	150.0	306.0	354540.0	350673.0	789927.0	1661.0	0	0.0	1072874.0	430	0.01	0.04	19.56	209872.0	1739.0	70984	0.15
5317STDY7723448	74.9	416043.0	2799.0	1.3	1.41	6.09	147.52	0.01	0.32	150.0	385.0	415165.0	411175.0	803234.0	1523.0	0	0.0	1072466.0	215	0.01	0.02	18.85	202168.0	1684.0	65326	0.14
5317STDY7723449	74.61	370485.0	2339.0	1.24	1.63	6.33	147.4	0.01	0.33	150.0	132.0	369645.0	366148.0	826768.0	1342.0	0	0.0	1108057.0	332	0.01	0.03	18.9	209474.0	1866.0	70141	0.12
5317STDY7723450	75.81	397753.0	2188.0	1.22	1.65	7.07	147.34	0.01	0.33	150.0	160.0	397019.0	393100.0	967572.0	1833.0	0	0.0	1276347.0	383	0.01	0.03	16.94	216245.0	2305.0	90314	0.14
5317STDY7723451	72.19	371035.0	2279.0	1.26	1.54	7.11	147.26	0.01	0.33	150.0	215.0	370272.0	366833.0	755226.0	2537.0	0	0.0	1046149.0	314	0.01	0.03	20.43	213727.0	1708.0	74345	0.24
5317STDY7723452	75.81	485137.0	2720.0	1.25	1.54	6.36	147.57	0.01	0.33	150.0	277.0	484213.0	480687.0	977290.0	1299.0	0	0.0	1289166.0	258	0.01	0.02	17.71	228299.0	1453.0	82020	0.1
5317STDY7723453	57.93	643312.0	4188.0	1.27	1.53	9.74	146.83	0.01	0.33	150.0	451.0	641823.0	634412.0	1467057.0	6256.0	0	0.0	2532390.0	1013	0.01	0.04	32.04	811284.0	4261.0	246780	0.25
5317STDY7723454	58.15	97994.0	584.0	1.25	1.47	26.89	145.69	0.01	0.52	150.0	111.0	96377.0	91545.0	374955.0	1880.0	0	0.0	644788.0	1225	0.01	0.19	14.48	93375.0	5754.0	173353	0.29
5317STDY7723455	67.89	304145.0	1874.0	1.29	1.61	6.79	147.19	0.01	0.32	150.0	145.0	303551.0	300596.0	671015.0	2611.0	0	0.0	988325.0	296	0.01	0.03	25.03	247332.0	1530.0	67071	0.26
5317STDY7723456	70.08	561223.0	3526.0	1.28	1.49	6.78	147.43	0.01	0.34	150.0	365.0	560326.0	555082.0	1107529.0	2992.0	0	0.0	1580438.0	474	0.01	0.03	22.92	362315.0	2250.0	107128	0.19
5317STDY7723457	73.74	619815.0	3490.0	1.3	1.53	6.33	147.35	0.01	0.33	150.0	398.0	618589.0	613643.0	1146642.0	2625.0	0	0.0	1555085.0	311	0.01	0.02	19.75	307121.0	2284.0	98386	0.17
5317STDY7723458	74.09	434132.0	3109.0	1.32	1.55	7.73	146.75	0.01	0.36	150.0	151.0	433038.0	426277.0	1137749.0	4831.0	0	0.0	1535728.0	922	0.01	0.06	17.81	273454.0	4595.0	118772	0.31
5317STDY7723459	68.48	350344.0	2747.0	1.29	1.71	7.13	147.3	0.01	0.34	150.0	289.0	349500.0	344604.0	995676.0	2938.0	0	0.0	1453930.0	582	0.01	0.04	24.15	351072.0	2704.0	103662	0.2
5317STDY7723460	55.66	121844.0	690.0	1.29	1.46	21.75	145.72	0.01	0.41	150.0	69.0	121144.0	119242.0	493225.0	2513.0	0	0.0	886125.0	532	0.01	0.06	22.24	197063.0	1843.0	192792	0.28
5317STDY7723461	69.14	334876.0	2969.0	1.28	1.5	7.11	147.3	0.01	0.34	150.0	313.0	334064.0	328965.0	886764.0	2596.0	0	0.0	1282523.0	513	0.01	0.04	23.5	301407.0	2629.0	91243	0.2
5317STDY7723462	66.02	187222.0	1458.0	1.24	1.47	7.75	146.96	0.01	0.33	150.0	132.0	186512.0	182913.0	933108.0	1863.0	0	0.0	1413410.0	424	0.01	0.03	26.07	368475.0	2719.0	109540	0.13
5317STDY7723463	68.9	761819.0	5034.0	1.25	1.61	6.86	147.27	0.01	0.32	150.0	537.0	760268.0	752236.0	1433553.0	3416.0	0	0.0	2080488.0	416	0.01	0.02	24.05	500453.0	4012.0	142650	0.16
5317STDY7723464	67.78	541012.0	3518.0	1.32	1.55	8.73	147.08	0.01	0.33	150.0	388.0	539966.0	533283.0	1315017.0	3695.0	0	0.0	1940206.0	388	0.01	0.02	23.29	451836.0	3823.0	169270	0.19
5317STDY7723465	68.85	442551.0	2220.0	1.24	1.62	8.27	146.77	0.01	0.33	150.0	317.0	441495.0	437560.0	1078223.0	4805.0	0	0.0	1566025.0	626	0.01	0.04	22.53	352863.0	2454.0	129508	0.31
5317STDY7723466	66.33	412487.0	2621.0	1.25	1.61	8.48	146.66	0.01	0.33	150.0	236.0	411562.0	407314.0	1020592.0	3431.0	0	0.0	1538643.0	462	0.01	0.03	24.93	383637.0	2316.0	130521	0.22
5317STDY7723467	71.85	702636.0	3679.0	1.28	1.61	7.85	147.27	0.01	0.32	150.0	713.0	701104.0	694460.0	1536104.0	3252.0	0	0.0	2138036.0	427	0.01	0.02	20.14	430526.0	3784.0	167727	0.15
5317STDY7723468	73.55	703545.0	4084.0	1.26	1.53	6.68	147.34	0.01	0.31	150.0	389.0	702146.0	696181.0	1269637.0	2278.0	0	0.0	1726179.0	345	0.01	0.02	19.61	338556.0	2891.0	115363	0.13
5317STDY7723469	47.65	706.0	5.0	1.07	1.44	33.84	145.97	0.01	0.49	150.0	0.0	698.0	694.0	1743.0	7.0	0	0.0	3658.0	3	0.01	0.08	18.23	667.0	7.0	1238	0.19
5317STDY7723470	48.25	755.0	6.0	1.0	1.27	32.61	145.82	0.01	0.53	150.0	0.0	753.0	747.0	1885.0	6.0	0	0.0	3907.0	0	0.01	0.0	18.99	742.0	2.0	1274	0.15
5317STDY7723471	69.43	472662.0	2482.0	1.22	1.57	19.86	143.56	0.01	0.38	150.0	72.0	471117.0	467284.0	1017559.0	4023.0	0	0.0	1465561.0	586	0.01	0.04	10.39	152234.0	2824.0	291159	0.27
5317STDY7723472	68.11	246909.0	1763.0	1.23	1.57	8.47	146.98	0.01	0.37	150.0	109.0	246245.0	243335.0	790712.0	2001.0	0	0.0	1160857.0	928	0.01	0.08	23.17	268981.0	1702.0	98235	0.17
5317STDY7723473	63.56	817748.0	5212.0	1.2	1.61	7.37	147.16	0.01	0.34	150.0	419.0	816126.0	808380.0	1723259.0	4412.0	0	0.0	2711113.0	542	0.01	0.02	28.89	783289.0	3737.0	199611	0.16
5317STDY7723474	57.15	790327.0	4908.0	1.24	1.55	6.24	146.84	0.01	0.33	150.0	284.0	788957.0	780504.0	1799601.0	9913.0	0	0.0	3149147.0	1889	0.01	0.06	36.24	1141298.0	4631.0	196446	0.31
5317STDY7723475	71.6	541079.0	3517.0	1.26	1.54	10.56	147.49	0.01	0.35	150.0	389.0	539876.0	533419.0	1235375.0	2076.0	0	0.0	1725322.0	690	0.01	0.04	17.68	305009.0	3754.0	182172	0.12
5317STDY7723476	75.98	383497.0	2931.0	1.29	1.67	6.92	147.76	0.01	0.37	150.0	277.0	382724.0	378105.0	912710.0	1911.0	0	0.0	1201187.0	480	0.01	0.04	16.9	202979.0	2184.0	83107	0.16
5317STDY7723477	74.8	382399.0	3497.0	1.26	1.55	8.33	147.44	0.01	0.37	150.0	177.0	381638.0	376226.0	970858.0	1509.0	0	0.0	1297937.0	778	0.01	0.06	16.7	216789.0	2499.0	108003	0.12
5317STDY7723478	76.52	525141.0	3954.0	1.19	1.6	12.57	147.24	0.01	0.36	150.0	272.0	523827.0	516892.0	1426423.0	2057.0	0	0.0	1864224.0	933	0.01	0.05	10.74	200306.0	4023.0	234505	0.11
5317STDY7723479	73.61	767793.0	2066.0	1.21	1.44	15.34	144.79	0.01	0.32	150.0	314.0	766569.0	762490.0	1214751.0	4296.0	0	0.0	1650151.0	1155	0.01	0.07	10.71	176757.0	2923.0	253192	0.26
5317STDY7723480	28.02	302.0	1.0	2.38	1.43	61.09	146.0	0.01	0.57	150.0	0.0	301.0	301.0	906.0	6.0	0	0.0	3233.0	4	0.01	0.12	10.58	342.0	0.0	1975	0.19
5317STDY7723481	80.45	383288.0	2179.0	1.32	1.55	6.5	147.79	0.01	0.37	150.0	326.0	382492.0	378724.0	1015319.0	1520.0	0	0.0	1262051.0	757	0.01	0.06	12.87	162427.0	2059.0	82028	0.12
5317STDY7723482	76.43	518961.0	3361.0	1.24	1.61	9.22	146.66	0.01	0.35	150.0	230.0	517883.0	512544.0	1270997.0	1741.0	0	0.0	1662858.0	499	0.01	0.03	14.21	236261.0	2826.0	153360	0.1
5317STDY7723483	77.92	534979.0	3797.0	1.21	1.62	6.43	147.56	0.01	0.37	150.0	279.0	533842.0	527702.0	1537773.0	2855.0	0	0.0	1973432.0	592	0.01	0.03	15.48	305422.0	3201.0	126790	0.14
5317STDY7723484	83.66	542516.0	4061.0	1.26	1.62	6.77	147.71	0.01	0.36	150.0	336.0	541511.0	534955.0	1430058.0	1323.0	0	0.0	1709408.0	342	0.01	0.02	9.48	161996.0	3164.0	115689	0.08
5317STDY7723485	78.14	615304.0	3954.0	1.26	1.55	7.12	147.56	0.01	0.35	150.0	301.0	613993.0	608120.0	1602228.0	1847.0	0	0.0	2050578.0	615	0.01	0.03	14.63	299941.0	2929.0	145947	0.09
5317STDY7723486	77.43	501493.0	2753.0	1.23	1.48	6.72	147.49	0.01	0.34	150.0	254.0	500237.0	495489.0	1635287.0	1897.0	0	0.0	2111932.0	1057	0.01	0.05	15.7	331658.0	2997.0	142033	0.09
5317STDY7723487	58.5	439858.0	2337.0	1.25	1.58	28.03	146.02	0.03	0.33	150.0	2.0	438690.0	435319.0	915820.0	1548.0	0	0.0	1565581.0	940	0.01	0.06	13.31	208366.0	2200.0	438907	0.1
5317STDY7723488	69.06	1008206.0	8355.0	1.23	1.58	7.04	147.51	0.01	0.31	150.0	547.0	1006529.0	995700.0	1816799.0	4842.0	0	0.0	2630673.0	526	0.01	0.02	23.7	623478.0	3604.0	185028	0.18
5317STDY7723489	65.48	256198.0	1210.0	1.18	1.51	21.86	145.49	0.02	0.33	150.0	0.0	255562.0	253072.0	538136.0	1053.0	0	0.0	821791.0	82	0.01	0.01	12.52	102875.0	1916.0	179645	0.13
5317STDY7723490	82.36	696745.0	5186.0	1.23	1.61	6.43	147.84	0.01	0.34	150.0	388.0	695407.0	687905.0	1678155.0	4033.0	0	0.0	2037590.0	1629	0.01	0.08	10.94	222830.0	3266.0	130943	0.2
5317STDY7723491	75.98	746112.0	5388.0	1.26	1.56	8.09	147.45	0.02	0.35	150.0	739.0	744402.0	734151.0	1447587.0	1376.0	0	0.0	1905331.0	191	0.01	0.01	15.85	302027.0	5834.0	154150	0.07
5317STDY7723492	38.47	535.0	1.0	1.38	1.67	47.6	145.39	0.01	0.48	150.0	0.0	534.0	533.0	2065.0	12.0	0	0.0	5368.0	11	0.01	0.2	13.51	725.0	1.0	2555	0.22
5317STDY7723493	76.76	462163.0	2813.0	1.28	1.55	10.11	147.75	0.01	0.36	150.0	328.0	461146.0	456240.0	1329711.0	1737.0	0	0.0	1732378.0	1732	0.01	0.1	12.94	224112.0	2782.0	175086	0.1
5317STDY7723494	80.58	321489.0	2399.0	1.22	1.54	6.56	147.79	0.01	0.38	150.0	381.0	320800.0	316995.0	749806.0	613.0	0	0.0	930553.0	372	0.01	0.04	12.77	118795.0	1714.0	60967	0.07
5317STDY7723495	76.6	1204847.0	7399.0	1.22	1.48	9.55	146.92	0.02	0.34	150.0	790.0	1202598.0	1189712.0	2277759.0	3502.0	0	0.0	2973693.0	892	0.01	0.03	13.7	407486.0	6946.0	284054	0.12
5317STDY7723496	83.83	374364.0	2897.0	1.27	1.55	5.87	147.93	0.01	0.36	150.0	422.0	373570.0	368855.0	1054122.0	1340.0	0	0.0	1257435.0	629	0.01	0.05	10.14	127531.0	2190.0	73813	0.11
5317STDY7723497	79.62	422859.0	2932.0	1.3	1.53	6.3	147.79	0.01	0.36	150.0	258.0	421864.0	416860.0	1204452.0	2261.0	0	0.0	1512829.0	605	0.01	0.04	13.9	210239.0	2809.0	95272	0.15
5317STDY7723498	62.91	2586.0	21.0	1.31	1.3	20.36	146.08	0.01	0.33	150.0	3.0	2579.0	2558.0	5625.0	12.0	0	0.0	8941.0	7	0.01	0.08	16.52	1477.0	4.0	1820	0.13
5317STDY7723499	55.96	535.0	4.0	1.27	2.0	30.31	146.66	0.01	0.53	150.0	0.0	533.0	530.0	1370.0	4.0	0	0.0	2448.0	2	0.01	0.08	13.48	330.0	1.0	742	0.16
5317STDY7723500	58.85	670.0	5.0	1.09	1.2	24.59	146.89	0.01	0.46	150.0	0.0	668.0	663.0	1692.0	3.0	0	0.0	2875.0	1	0.0	0.03	16.42	472.0	2.0	707	0.1
5317STDY7723501	58.94	595.0	4.0	1.1	1.37	25.98	147.04	0.01	0.47	150.0	0.0	592.0	589.0	1450.0	5.0	0	0.0	2460.0	3	0.01	0.12	14.76	363.0	2.0	639	0.2
5317STDY7723502	55.43	520.0	1.0	1.2	1.29	32.46	146.44	0.01	0.57	150.0	1.0	519.0	517.0	1337.0	3.0	0	0.0	2412.0	0	0.01	0.0	11.98	289.0	1.0	783	0.12
5317STDY7723503	77.55	584821.0	3221.0	1.21	1.7	7.96	146.55	0.01	0.36	150.0	293.0	583707.0	578750.0	1309907.0	2090.0	0	0.0	1689077.0	507	0.01	0.03	14.33	242096.0	2557.0	134477	0.12
5317STDY7723504	42.86	549.0	3.0	1.59	2.21	32.31	145.6	0.02	0.45	150.0	0.0	548.0	545.0	1500.0	8.0	0	0.0	3500.0	5	0.01	0.14	24.46	856.0	1.0	1131	0.23
5317STDY7723505	80.44	315080.0	2085.0	1.24	1.55	5.82	147.82	0.01	0.38	150.0	187.0	314377.0	311227.0	812733.0	1175.0	0	0.0	1010308.0	304	0.01	0.03	13.58	137202.0	1581.0	58894	0.12
5317STDY7723506	82.06	343452.0	2737.0	1.31	1.68	5.7	147.83	0.01	0.38	150.0	275.0	342638.0	337740.0	1290353.0	1307.0	0	0.0	1572503.0	944	0.01	0.06	12.09	190190.0	2700.0	89709	0.08
5317STDY7723507	84.5	458501.0	3542.0	1.28	1.61	5.88	148.02	0.01	0.38	150.0	330.0	457675.0	452139.0	1233824.0	1469.0	0	0.0	1460155.0	877	0.01	0.06	9.45	138016.0	2490.0	85969	0.1
5317STDY7723508	84.16	451522.0	3812.0	1.29	1.42	6.02	148.02	0.01	0.37	150.0	411.0	450542.0	444246.0	1495135.0	1883.0	0	0.0	1776577.0	1068	0.01	0.06	9.65	171381.0	3053.0	107110	0.11
5317STDY7723509	84.47	542861.0	3381.0	1.3	1.58	5.72	147.98	0.01	0.36	150.0	127.0	541994.0	535747.0	1505145.0	3528.0	0	0.0	1781930.0	1960	0.01	0.11	9.5	169357.0	3606.0	101940	0.2
5317STDY7723510	80.12	730276.0	5246.0	1.22	1.5	5.77	147.85	0.01	0.34	150.0	518.0	729071.0	720962.0	1758859.0	2799.0	0	0.0	2195331.0	1535	0.01	0.07	13.92	305593.0	3550.0	126545	0.13
5317STDY7723511	80.67	228519.0	1682.0	1.26	1.54	5.88	147.86	0.01	0.37	150.0	166.0	227986.0	225362.0	743322.0	1153.0	0	0.0	921487.0	553	0.01	0.06	13.27	122250.0	1309.0	54209	0.13
5317STDY7723512	81.99	708927.0	4467.0	1.23	1.47	6.67	147.67	0.01	0.33	150.0	831.0	707231.0	699763.0	1508224.0	1250.0	0	0.0	1839425.0	920	0.01	0.05	11.22	206341.0	3866.0	122690	0.07
5317STDY7723513	80.45	293261.0	1941.0	1.26	1.6	5.58	147.96	0.01	0.37	150.0	223.0	292572.0	289728.0	696083.0	764.0	0	0.0	865290.0	692	0.01	0.08	13.81	119498.0	1369.0	48253	0.09
5317STDY7723514	80.38	439649.0	3437.0	1.29	1.51	6.51	147.96	0.01	0.39	150.0	270.0	438811.0	433466.0	1136794.0	1238.0	0	0.0	1414244.0	707	0.01	0.05	12.97	183450.0	2476.0	92055	0.09
5317STDY7723515	66.08	16923.0	299.0	1.34	1.65	10.65	146.09	0.01	0.89	150.0	10.0	16217.0	16412.0	93384.0	415.0	0	0.0	141322.0	113	0.01	0.08	22.9	32360.0	202.0	15050	0.29
5317STDY7723516	71.64	78121.0	700.0	1.22	1.6	8.99	146.42	0.01	0.6	150.0	59.0	76865.0	76791.0	302272.0	936.0	0	0.0	421909.0	295	0.01	0.07	19.08	80501.0	571.0	37905	0.22
5317STDY7723517	80.58	423742.0	2954.0	1.22	1.53	5.67	147.69	0.01	0.37	150.0	331.0	422995.0	418428.0	1178505.0	1098.0	0	0.0	1462552.0	439	0.01	0.03	13.64	199535.0	2029.0	82975	0.08
5317STDY7723518	79.06	379114.0	2420.0	1.23	1.59	6.11	147.78	0.01	0.36	150.0	260.0	377790.0	372459.0	1569183.0	4862.0	0	0.0	1984908.0	2780	0.01	0.14	14.45	286736.0	3975.0	121347	0.24
5317STDY7723519	80.07	283461.0	2127.0	1.29	1.7	5.64	147.78	0.01	0.36	150.0	207.0	282858.0	279712.0	736673.0	1064.0	0	0.0	920082.0	552	0.01	0.06	14.12	129870.0	1415.0	51923	0.12
5317STDY7723520	55.83	251567.0	2589.0	1.2	1.51	33.9	147.79	0.01	0.36	150.0	79.0	250846.0	245438.0	1021954.0	1761.0	0	0.0	1830316.0	2014	0.01	0.11	10.05	183945.0	3461.0	620642	0.1
5317STDY7723521	76.68	213057.0	1416.0	1.23	1.65	5.47	147.69	0.01	0.37	150.0	177.0	212590.0	210533.0	556877.0	729.0	0	0.0	726266.0	218	0.01	0.03	17.73	128765.0	931.0	39677	0.1
5317STDY7723522	79.78	184826.0	1441.0	1.26	1.61	6.16	147.61	0.01	0.37	150.0	152.0	184350.0	182275.0	486844.0	607.0	0	0.0	610235.0	183	0.01	0.03	13.93	85003.0	958.0	37598	0.1
5317STDY7723523	72.11	94166.0	563.0	1.24	1.58	4.82	147.77	0.01	0.37	150.0	49.0	93907.0	93131.0	239530.0	492.0	0	0.0	332163.0	100	0.01	0.03	22.89	76044.0	423.0	15997	0.15
5317STDY7723524	80.31	253672.0	1735.0	1.22	1.55	5.8	147.8	0.01	0.38	150.0	270.0	252988.0	250678.0	565331.0	921.0	0	0.0	703932.0	211	0.01	0.03	13.73	96675.0	989.0	40794	0.13
5317STDY7723525	79.62	342721.0	2415.0	1.23	1.55	5.83	147.78	0.01	0.37	150.0	403.0	342114.0	338622.0	723774.0	961.0	0	0.0	909075.0	273	0.01	0.03	14.42	131109.0	1281.0	52958	0.11
5317STDY7723526	44.65	527.0	0.0	1.15	1.14	28.39	145.67	0.0	0.59	150.0	0.0	527.0	527.0	1335.0	10.0	0	0.0	2990.0	3	0.01	0.1	26.52	793.0	0.0	849	0.33
5317STDY7723527	74.84	452867.0	3140.0	1.25	1.53	6.22	147.88	0.01	0.36	150.0	242.0	451886.0	447288.0	1058759.0	1760.0	0	0.0	1414611.0	566	0.01	0.04	18.77	265572.0	2197.0	87954	0.12
5317STDY7723528	82.74	368918.0	2385.0	1.25	1.58	5.42	147.81	0.01	0.36	150.0	152.0	368151.0	364407.0	1024076.0	1744.0	0	0.0	1237695.0	618	0.01	0.05	11.65	144232.0	1974.0	67025	0.14
5317STDY7723529	81.88	369837.0	2305.0	1.29	1.55	5.32	147.83	0.01	0.38	150.0	237.0	368905.0	365262.0	1012475.0	1721.0	0	0.0	1236588.0	371	0.01	0.03	12.63	156168.0	2033.0	65853	0.14
5317STDY7723530	73.15	63628.0	378.0	1.24	1.46	4.61	147.89	0.01	0.38	150.0	30.0	63430.0	62983.0	131785.0	317.0	0	0.0	180169.0	90	0.01	0.05	22.01	39662.0	237.0	8315	0.18
5317STDY7723531	73.75	370445.0	2727.0	1.29	1.65	5.47	147.54	0.01	0.36	150.0	299.0	369579.0	365710.0	924261.0	2083.0	0	0.0	1253253.0	501	0.01	0.04	20.58	257934.0	1709.0	68474	0.17
5317STDY7723532	79.8	349525.0	2533.0	1.24	1.44	5.33	147.97	0.01	0.36	150.0	238.0	348755.0	345236.0	810699.0	1160.0	0	0.0	1015950.0	304	0.01	0.03	14.74	149701.0	1518.0	54086	0.11
5317STDY7723533	82.96	331544.0	2130.0	1.23	1.51	5.09	147.95	0.01	0.36	150.0	447.0	330807.0	327723.0	747719.0	658.0	0	0.0	901325.0	541	0.01	0.06	11.82	106536.0	1244.0	45871	0.07
5317STDY7723534	70.33	219218.0	1596.0	1.21	1.61	6.16	146.87	0.01	0.37	150.0	212.0	218359.0	215867.0	854580.0	2234.0	0	0.0	1215186.0	607	0.01	0.05	23.29	282962.0	1543.0	74803	0.18
5317STDY7723535	64.01	98666.0	515.0	1.28	1.82	9.73	146.69	0.01	0.38	150.0	137.0	98283.0	97098.0	397994.0	1229.0	0	0.0	621754.0	497	0.01	0.08	25.98	161539.0	916.0	60495	0.2
5317STDY7723536	58.24	500.0	3.0	1.21	1.47	23.39	147.38	0.01	0.47	150.0	1.0	495.0	493.0	1392.0	1.0	0	0.0	2390.0	0	0.01	0.0	18.33	438.0	3.0	559	0.04
5317STDY7723537	65.74	290108.0	1371.0	1.23	1.64	7.55	146.37	0.01	0.37	150.0	301.0	289308.0	286844.0	966443.0	3052.0	0	0.0	1470016.0	441	0.01	0.03	26.47	389174.0	1592.0	110906	0.21
5317STDY7723538	36.95	297.0	4.0	1.14	2.47	43.1	145.67	0.02	0.45	150.0	1.0	292.0	287.0	1250.0	10.0	0	0.0	3383.0	7	0.0	0.21	19.45	658.0	5.0	1458	0.3
5317STDY7723539	70.09	155475.0	1091.0	1.24	1.61	6.23	147.53	0.01	0.39	150.0	100.0	155027.0	153666.0	411779.0	1162.0	0	0.0	587470.0	235	0.01	0.04	23.43	137664.0	618.0	36630	0.2
5317STDY7723540	80.28	471328.0	3213.0	1.28	1.56	5.49	147.87	0.01	0.36	150.0	318.0	470456.0	465115.0	1148751.0	2001.0	0	0.0	1430950.0	1001	0.01	0.07	14.03	200699.0	2682.0	78498	0.14
5317STDY7723541	76.18	603058.0	5120.0	1.25	1.59	8.31	147.76	0.01	0.34	150.0	339.0	601640.0	592589.0	1805658.0	3262.0	0	0.0	2370407.0	1660	0.01	0.07	15.31	362806.0	5010.0	197021	0.14
5317STDY7723542	79.33	340664.0	2434.0	1.26	1.5	5.1	147.99	0.01	0.36	150.0	254.0	339960.0	336705.0	809914.0	1074.0	0	0.0	1020978.0	408	0.01	0.04	15.43	157521.0	1271.0	52061	0.11
5317STDY7723543	73.24	449543.0	2895.0	1.2	1.58	7.01	147.06	0.01	0.35	150.0	274.0	448679.0	444943.0	847375.0	1193.0	0	0.0	1156992.0	347	0.01	0.03	19.62	226996.0	1431.0	81081	0.1
5317STDY7723544	74.21	415705.0	2195.0	1.23	1.5	9.91	145.99	0.01	0.35	150.0	122.0	414439.0	411877.0	813019.0	2646.0	0	0.0	1095495.0	438	0.01	0.04	15.6	170860.0	1511.0	108532	0.24
5317STDY7723545	75.83	195489.0	1018.0	1.27	1.55	7.57	147.17	0.01	0.37	150.0	109.0	195044.0	193431.0	491171.0	785.0	0	0.0	647687.0	194	0.01	0.03	16.45	106544.0	931.0	48993	0.12
5317STDY7723546	76.73	148121.0	867.0	1.31	1.57	5.59	147.57	0.01	0.37	150.0	57.0	147663.0	146308.0	448063.0	898.0	0	0.0	583947.0	468	0.01	0.08	17.44	101829.0	889.0	32689	0.15
5317STDY7723547	52.67	595.0	3.0	1.21	1.71	28.36	146.8	0.01	0.85	150.0	0.0	592.0	590.0	1549.0	7.0	0	0.0	2941.0	0	0.01	0.0	18.74	551.0	2.0	834	0.24
5317STDY7723548	73.46	74261.0	505.0	1.24	1.65	5.98	147.48	0.01	0.4	150.0	36.0	74010.0	73368.0	181257.0	355.0	0	0.0	246734.0	123	0.01	0.05	20.37	50253.0	352.0	14746	0.14
5317STDY7723549	77.13	11347.0	76.0	1.18	1.43	6.93	146.47	0.01	0.37	150.0	2.0	11302.0	11225.0	28763.0	63.0	0	0.0	37293.0	22	0.01	0.06	15.71	5858.0	44.0	2587	0.17
5317STDY7723550	33.84	247.0	3.0	1.0	1.0	55.32	142.17	0.01	1.32	150.0	0.0	234.0	241.0	939.0	14.0	0	0.0	2775.0	2	0.01	0.07	10.27	285.0	3.0	1535	0.5
5317STDY7723551	42.82	568.0	6.0	1.23	2.0	20.82	145.26	0.02	0.34	150.0	0.0	566.0	560.0	1526.0	16.0	0	0.0	3564.0	0	0.01	0.0	35.91	1280.0	2.0	742	0.45
5317STDY7723552	41.31	328.0	2.0	1.15	1.0	29.26	144.83	0.0	0.35	150.0	0.0	321.0	320.0	775.0	11.0	0	0.0	1876.0	0	0.01	0.0	28.84	541.0	6.0	549	0.59
5317STDY7723553	38.14	122.0	0.0	1.0	2.0	36.79	144.52	0.0	0.5	150.0	0.0	122.0	122.0	397.0	5.0	0	0.0	1041.0	2	0.0	0.19	24.4	254.0	0.0	383	0.48
5317STDY7723554	45.56	691.0	0.0	1.19	1.58	19.6	146.03	0.01	0.36	150.0	1.0	687.0	688.0	1820.0	26.0	0	0.0	3995.0	4	0.01	0.1	34.09	1362.0	2.0	783	0.65
5317STDY7723555	38.73	185.0	3.0	1.0	2.33	33.87	144.75	0.02	0.4	150.0	0.0	183.0	181.0	581.0	5.0	0	0.0	1500.0	1	0.01	0.07	27.0	405.0	1.0	508	0.33
5317STDY7723556	35.84	65.0	0.0	0.0	1.0	35.52	143.8	0.01	0.4	150.0	1.0	65.0	64.0	224.0	3.0	0	0.0	625.0	1	0.0	0.16	28.0	175.0	0.0	222	0.48
5317STDY7723557	34.0	238.0	0.0	1.14	2.0	46.33	145.43	0.02	0.34	150.0	1.0	237.0	236.0	819.0	6.0	0	0.0	2409.0	4	0.01	0.17	19.26	464.0	1.0	1116	0.25
5317STDY7723558	34.64	131.0	0.0	1.0	1.0	38.08	144.48	0.01	0.41	150.0	0.0	130.0	131.0	452.0	9.0	0	0.0	1305.0	1	0.01	0.08	26.51	346.0	0.0	497	0.69
5317STDY7723559	18.23	13.0	0.0	0.0	0.0	62.28	144.26	0.0	0.61	150.0	0.0	13.0	13.0	72.0	1.0	0	0.0	395.0	0	0.0	0.0	19.24	76.0	0.0	246	0.25
5317STDY7723560	5.01	133.0	0.0	1.0	1.0	90.04	143.22	0.01	0.47	150.0	0.0	132.0	133.0	514.0	5.0	0	0.0	10260.0	1	0.01	0.01	4.89	502.0	0.0	9238	0.05
5317STDY7723561	61.46	273883.0	1644.0	1.29	1.6	6.88	147.82	0.01	0.35	150.0	89.0	273290.0	271323.0	425421.0	1049.0	0	0.0	692217.0	138	0.0	0.02	31.49	217979.0	827.0	47630	0.15
5317STDY7723562	44.73	213273.0	1320.0	1.23	1.34	9.52	147.52	0.01	0.42	150.0	97.0	212766.0	211195.0	421265.0	2032.0	0	0.0	941747.0	188	0.01	0.02	45.51	428592.0	661.0	89670	0.22
5317STDY7723563	51.22	268687.0	1275.0	1.31	1.52	10.44	147.54	0.01	0.42	150.0	172.0	267867.0	265912.0	486692.0	2479.0	0	0.0	950215.0	285	0.01	0.03	38.05	361581.0	1328.0	99178	0.26
5317STDY7723564	37.88	126382.0	494.0	1.22	1.45	16.53	146.87	0.01	0.38	150.0	61.0	126079.0	125454.0	210260.0	2106.0	0	0.0	555071.0	56	0.01	0.01	45.2	250898.0	373.0	91751	0.38
5317STDY7723565	43.08	147507.0	835.0	1.24	1.59	15.59	147.04	0.01	0.37	150.0	150.0	147051.0	145948.0	242618.0	1475.0	0	0.0	563117.0	113	0.01	0.02	41.04	231112.0	574.0	87799	0.26
5317STDY7723566	37.52	90269.0	519.0	1.34	1.8	31.5	147.26	0.01	0.39	150.0	118.0	90007.0	89154.0	163399.0	1530.0	0	0.0	435524.0	131	0.01	0.03	30.6	133257.0	478.0	137207	0.35
5317STDY7723567	36.15	150268.0	1270.0	1.3	1.63	25.99	147.06	0.01	0.39	150.0	34.0	149763.0	148132.0	281102.0	2009.0	0	0.0	777669.0	156	0.01	0.02	37.59	292307.0	832.0	202095	0.26
5317STDY7723568	38.62	134330.0	528.0	1.3	1.62	27.42	146.86	0.01	0.4	150.0	74.0	133994.0	133167.0	246970.0	1075.0	0	0.0	639429.0	128	0.01	0.02	33.77	215943.0	561.0	175313	0.17
5317STDY7723569	54.16	291126.0	1660.0	1.24	1.53	10.07	147.54	0.01	0.36	150.0	201.0	290443.0	288299.0	471966.0	1991.0	0	0.0	871460.0	261	0.01	0.03	35.52	309517.0	966.0	87725	0.23
5317STDY7723570	57.61	471006.0	2609.0	1.24	1.57	8.03	147.81	0.01	0.38	150.0	206.0	470117.0	466767.0	823460.0	2521.0	0	0.0	1429442.0	286	0.01	0.02	34.17	488408.0	1424.0	114767	0.18
5317STDY7723571	54.58	481420.0	3340.0	1.21	1.52	7.42	147.87	0.01	0.4	150.0	299.0	480422.0	476162.0	833872.0	2973.0	0	0.0	1527898.0	306	0.01	0.02	37.79	577348.0	1619.0	113399	0.19
5317STDY7723572	62.49	232216.0	1435.0	1.25	1.6	8.4	147.84	0.01	0.42	150.0	110.0	231617.0	229539.0	519404.0	1771.0	0	0.0	831150.0	249	0.01	0.03	28.87	239923.0	1132.0	69803	0.21
5317STDY7723573	57.97	306141.0	1773.0	1.28	1.47	8.93	147.63	0.01	0.4	150.0	193.0	305487.0	302956.0	566959.0	1684.0	0	0.0	978009.0	196	0.01	0.02	32.91	321816.0	1219.0	87354	0.17
5317STDY7723574	56.13	377131.0	2132.0	1.25	1.46	10.22	147.61	0.01	0.4	150.0	141.0	376268.0	373460.0	859084.0	2954.0	0	0.0	1530452.0	153	0.01	0.01	33.44	511794.0	1398.0	156467	0.19
5317STDY7723575	51.16	306879.0	1719.0	1.23	1.4	9.56	147.55	0.01	0.41	150.0	246.0	306152.0	303565.0	747900.0	2698.0	0	0.0	1461857.0	584	0.01	0.04	39.06	571015.0	1349.0	139660	0.18
5317STDY7723576	60.72	172280.0	901.0	1.22	1.5	8.18	147.66	0.01	0.42	150.0	137.0	171843.0	170591.0	411959.0	1240.0	0	0.0	678407.0	136	0.01	0.02	30.89	209547.0	651.0	55525	0.18
5317STDY7723577	56.08	206179.0	1113.0	1.23	1.45	9.48	147.42	0.01	0.4	150.0	125.0	205703.0	204111.0	526731.0	2523.0	0	0.0	939274.0	375	0.01	0.04	34.14	320668.0	830.0	88977	0.27
5317STDY7723578	60.16	131446.0	812.0	1.24	1.49	7.13	147.69	0.01	0.42	150.0	92.0	131097.0	130181.0	278457.0	792.0	0	0.0	462858.0	46	0.01	0.01	32.53	150548.0	361.0	33015	0.17
5317STDY7723579	46.07	294693.0	871.0	1.21	1.53	14.12	146.79	0.01	0.45	150.0	313.0	293828.0	291742.0	719652.0	4729.0	0	0.0	1561937.0	625	0.01	0.04	39.46	616382.0	1767.0	220549	0.3
5317STDY7723580	46.19	222509.0	1093.0	1.2	1.5	15.72	146.91	0.01	0.43	150.0	50.0	221985.0	220305.0	628690.0	2300.0	0	0.0	1361074.0	272	0.01	0.02	37.89	515755.0	1061.0	214057	0.17
5317STDY7723581	54.86	271019.0	1289.0	1.23	1.52	9.39	147.2	0.01	0.43	150.0	192.0	270445.0	268586.0	600788.0	3988.0	0	0.0	1095147.0	329	0.01	0.03	35.35	387152.0	952.0	102890	0.36
5317STDY7723582	66.82	180091.0	1160.0	1.27	1.54	7.69	147.9	0.01	0.42	150.0	212.0	179594.0	178044.0	376227.0	1035.0	0	0.0	563010.0	169	0.01	0.03	25.28	142317.0	675.0	43262	0.18
5317STDY7723583	66.32	348576.0	2121.0	1.26	1.59	8.52	147.93	0.01	0.41	150.0	276.0	347766.0	344732.0	739714.0	2788.0	0	0.0	1115431.0	223	0.01	0.02	24.9	277688.0	1447.0	95018	0.25
5317STDY7723584	66.4	392553.0	2552.0	1.23	1.52	7.4	148.16	0.01	0.4	150.0	412.0	391633.0	388185.0	830664.0	2000.0	0	0.0	1251008.0	125	0.01	0.01	26.02	325573.0	1404.0	92646	0.16
5317STDY7723585	49.12	303816.0	1629.0	1.25	1.48	9.54	147.68	0.01	0.39	150.0	191.0	303242.0	301033.0	527814.0	4108.0	0	0.0	1074508.0	322	0.01	0.03	40.93	439747.0	963.0	102517	0.38
5317STDY7723586	57.11	291883.0	2220.0	1.24	1.51	14.2	147.3	0.01	0.41	150.0	126.0	290973.0	287440.0	769880.0	3236.0	0	0.0	1348093.0	943	0.01	0.07	28.38	382656.0	2097.0	191378	0.24
5317STDY7723587	59.1	323950.0	1968.0	1.22	1.54	10.25	147.63	0.01	0.43	150.0	290.0	323207.0	320363.0	715289.0	2428.0	0	0.0	1210326.0	242	0.01	0.02	30.43	368278.0	1329.0	124089	0.2
5317STDY7723588	33.79	38267.0	452.0	1.18	1.36	14.35	146.41	0.01	0.59	150.0	20.0	36812.0	31401.0	519491.0	7286.0	0	0.0	1537476.0	4305	0.01	0.28	51.11	785764.0	6394.0	220630	0.47
5317STDY7723589	57.35	125158.0	848.0	1.25	1.43	12.55	147.02	0.01	0.46	150.0	117.0	124499.0	123117.0	543382.0	1386.0	0	0.0	947527.0	379	0.01	0.04	29.91	283440.0	1076.0	118940	0.15
5317STDY7723590	64.51	268692.0	1708.0	1.25	1.56	7.92	147.71	0.01	0.41	150.0	265.0	268015.0	265689.0	612395.0	1633.0	0	0.0	949295.0	285	0.01	0.03	27.36	259749.0	1030.0	75233	0.17
5317STDY7723591	55.86	201109.0	1049.0	1.28	1.51	12.75	147.03	0.01	0.42	150.0	127.0	200538.0	198777.0	549902.0	2128.0	0	0.0	984450.0	197	0.01	0.02	31.15	306659.0	1156.0	125564	0.22
5317STDY7723592	62.03	337536.0	2092.0	1.3	1.5	8.84	147.75	0.01	0.39	150.0	219.0	336635.0	333520.0	720749.0	2041.0	0	0.0	1161982.0	232	0.01	0.02	28.94	336254.0	1705.0	102706	0.18
5317STDY7723593	44.83	451051.0	3189.0	1.26	1.6	3.9	148.73	0.01	0.38	150.0	456.0	450426.0	445820.0	1035243.0	8334.0	0	0.0	2309184.0	693	0.01	0.03	50.88	1174874.0	1586.0	90040	0.36
5317STDY7723594	64.52	331250.0	1733.0	1.25	1.59	7.75	147.85	0.01	0.42	150.0	166.0	330396.0	328117.0	777914.0	2854.0	0	0.0	1205735.0	483	0.01	0.04	27.45	330930.0	1234.0	93554	0.24
5317STDY7723595	67.71	297376.0	1827.0	1.25	1.53	9.13	147.84	0.01	0.42	150.0	226.0	296701.0	294122.0	701151.0	2281.0	0	0.0	1035550.0	518	0.01	0.05	22.89	237019.0	1201.0	94581	0.22
5317STDY7723596	58.47	240947.0	1655.0	1.23	1.44	7.14	147.67	0.01	0.46	150.0	182.0	240312.0	230722.0	613577.0	3166.0	0	0.0	1049316.0	315	0.01	0.03	34.05	357334.0	8388.0	74924	0.3
5317STDY7723597	50.44	206609.0	971.0	1.21	1.52	12.68	147.3	0.01	0.38	150.0	120.0	206187.0	204964.0	356045.0	1161.0	0	0.0	705854.0	141	0.01	0.02	36.69	258956.0	554.0	89551	0.16
5317STDY7723598	57.0	251330.0	1627.0	1.26	1.37	6.24	147.52	0.01	0.41	150.0	202.0	250694.0	248506.0	712141.0	2836.0	0	0.0	1249350.0	374	0.01	0.03	36.51	456145.0	995.0	77854	0.23
5317STDY7723599	40.99	35820.0	468.0	1.17	1.3	7.8	147.56	0.01	0.48	150.0	45.0	35414.0	34142.0	628901.0	6007.0	0	0.0	1534171.0	1073	0.01	0.07	50.75	778650.0	1165.0	119540	0.39
5317STDY7723600	51.31	221047.0	1176.0	1.23	1.44	7.18	147.2	0.01	0.4	150.0	178.0	220466.0	218532.0	655168.0	2440.0	0	0.0	1276902.0	255	0.01	0.02	41.3	527342.0	1161.0	91697	0.19
5317STDY7723601	58.62	235872.0	1294.0	1.22	1.44	7.01	147.72	0.01	0.4	150.0	111.0	235323.0	233657.0	536733.0	1553.0	0	0.0	915550.0	183	0.01	0.02	34.18	312901.0	810.0	64180	0.17
5317STDY7723602	63.98	282287.0	1675.0	1.23	1.46	7.49	147.55	0.01	0.4	150.0	243.0	281641.0	279139.0	729238.0	4137.0	0	0.0	1139795.0	228	0.01	0.02	28.14	320733.0	1230.0	85459	0.36
5317STDY7723603	52.67	252201.0	1285.0	1.24	1.4	7.2	147.33	0.01	0.4	150.0	307.0	251607.0	249486.0	644070.0	3970.0	0	0.0	1222912.0	489	0.01	0.04	39.77	486348.0	1123.0	88035	0.32
5317STDY7723604	56.46	134460.0	609.0	1.24	1.43	7.76	147.06	0.01	0.4	150.0	41.0	134019.0	133212.0	389190.0	1850.0	0	0.0	689316.0	138	0.01	0.02	35.49	244615.0	598.0	53523	0.27
5317STDY7723605	47.15	54066.0	588.0	1.18	1.22	6.84	148.22	0.01	0.46	150.0	1.0	53657.0	52401.0	804061.0	3317.0	0	0.0	1705442.0	853	0.01	0.05	45.76	780489.0	1076.0	116722	0.19
5317STDY7723606	68.62	396885.0	2695.0	1.28	1.48	6.37	148.1	0.01	0.4	150.0	407.0	396070.0	391385.0	988203.0	2959.0	0	0.0	1440062.0	288	0.01	0.02	24.78	356817.0	2398.0	91795	0.21
5317STDY7723607	62.96	265770.0	1598.0	1.22	1.45	5.74	147.8	0.01	0.42	150.0	241.0	265103.0	262939.0	613411.0	1867.0	0	0.0	974292.0	195	0.01	0.02	31.09	302887.0	992.0	55932	0.19
5317STDY7723608	69.59	363215.0	2951.0	1.34	1.52	6.5	148.17	0.01	0.4	150.0	260.0	362244.0	357991.0	829207.0	1691.0	0	0.0	1191485.0	715	0.01	0.06	23.71	282448.0	2013.0	77424	0.14
5317STDY7723609	61.14	235360.0	1538.0	1.27	1.48	5.53	147.74	0.01	0.4	150.0	165.0	234764.0	232886.0	403262.0	1089.0	0	0.0	659608.0	198	0.0	0.03	33.14	218601.0	771.0	36458	0.17
5317STDY7723610	68.64	303345.0	2310.0	1.26	1.48	6.19	148.03	0.01	0.41	150.0	130.0	302581.0	299391.0	705045.0	1446.0	0	0.0	1027204.0	513	0.01	0.05	24.99	256651.0	1514.0	63549	0.14
5317STDY7723611	57.33	266702.0	1367.0	1.28	1.52	8.98	147.28	0.01	0.41	150.0	233.0	265883.0	263560.0	710647.0	1633.0	0	0.0	1239630.0	743	0.01	0.06	33.51	415359.0	1542.0	111248	0.13
5317STDY7723612	30.99	85324.0	433.0	1.21	1.43	32.23	146.18	0.02	0.39	150.0	170.0	85012.0	84127.0	402346.0	1808.0	0	0.0	1298336.0	260	0.01	0.02	36.62	475460.0	594.0	418462	0.14
5317STDY7723613	67.78	196608.0	1200.0	1.25	1.43	7.16	147.82	0.01	0.41	150.0	122.0	195979.0	194471.0	491803.0	2098.0	0	0.0	725594.0	218	0.01	0.03	24.75	179549.0	815.0	51926	0.29
5317STDY7723614	61.42	199532.0	1102.0	1.23	1.46	6.99	147.64	0.01	0.41	150.0	90.0	198956.0	197520.0	489779.0	1800.0	0	0.0	797476.0	159	0.01	0.02	31.35	250004.0	820.0	55734	0.23
5317STDY7723615	64.14	247981.0	1178.0	1.26	1.44	6.33	147.41	0.01	0.39	150.0	203.0	247347.0	245712.0	604345.0	2431.0	0	0.0	942194.0	94	0.01	0.01	29.26	275677.0	888.0	59647	0.26
5317STDY7723616	70.48	345863.0	1946.0	1.29	1.45	5.65	148.04	0.01	0.38	150.0	374.0	345048.0	342168.0	758882.0	1097.0	0	0.0	1076689.0	216	0.01	0.02	23.74	255577.0	1375.0	60917	0.1
5317STDY7723617	69.48	309251.0	1792.0	1.28	1.53	6.48	147.68	0.01	0.39	150.0	195.0	308424.0	305769.0	818221.0	1170.0	0	0.0	1177602.0	118	0.01	0.01	23.92	281740.0	1495.0	76353	0.1
5317STDY7723618	49.2	153028.0	544.0	1.21	1.46	8.97	146.75	0.01	0.42	150.0	33.0	152468.0	151123.0	612621.0	2344.0	0	0.0	1245235.0	373	0.01	0.03	41.62	518264.0	1328.0	111633	0.19
5317STDY7723619	67.85	303702.0	2156.0	1.28	1.49	6.05	148.01	0.01	0.41	150.0	224.0	302844.0	299237.0	953288.0	3572.0	0	0.0	1404998.0	422	0.01	0.03	25.81	362638.0	2085.0	85078	0.25
5317STDY7723620	43.69	34480.0	555.0	1.18	1.29	8.29	147.69	0.02	0.54	150.0	36.0	33552.0	30536.0	590434.0	3959.0	0	0.0	1351350.0	1621	0.01	0.12	47.61	643361.0	3353.0	111975	0.29
5317STDY7723621	59.02	266842.0	1407.0	1.25	1.59	7.32	147.68	0.01	0.35	150.0	215.0	266276.0	264438.0	409696.0	1212.0	0	0.0	694120.0	69	0.01	0.01	33.47	232289.0	782.0	50854	0.17
5317STDY7723622	64.79	252050.0	1334.0	1.24	1.45	6.41	147.75	0.01	0.4	150.0	194.0	251333.0	249492.0	563879.0	1658.0	0	0.0	870252.0	261	0.01	0.03	28.58	248699.0	1030.0	55755	0.19
5317STDY7723623	61.79	296803.0	1571.0	1.23	1.46	7.34	147.53	0.01	0.4	150.0	177.0	296027.0	293685.0	749361.0	2809.0	0	0.0	1212770.0	243	0.01	0.02	30.62	371326.0	1370.0	89031	0.23
5317STDY7723624	69.67	315940.0	2434.0	1.24	1.49	6.49	148.04	0.01	0.4	150.0	326.0	315135.0	311830.0	749748.0	1706.0	0	0.0	1076163.0	323	0.01	0.03	23.65	254529.0	1350.0	69857	0.16
5317STDY7723625	42.64	105644.0	378.0	1.21	1.44	8.17	146.68	0.01	0.42	150.0	69.0	105236.0	104544.0	409375.0	2689.0	0	0.0	960002.0	192	0.01	0.02	48.89	469335.0	653.0	78411	0.28
5317STDY7723626	57.58	112783.0	651.0	1.25	1.53	8.78	147.17	0.01	0.41	150.0	61.0	112372.0	111484.0	377020.0	1521.0	0	0.0	654749.0	131	0.01	0.02	33.39	218590.0	587.0	57487	0.23
5317STDY7723627	65.79	154846.0	965.0	1.23	1.53	7.33	147.89	0.01	0.41	150.0	145.0	154374.0	153209.0	333460.0	738.0	0	0.0	506890.0	152	0.01	0.03	26.7	135362.0	527.0	37178	0.15
5317STDY7723628	61.73	167847.0	1118.0	1.23	1.49	8.23	147.47	0.01	0.4	150.0	95.0	167305.0	165805.0	458074.0	1241.0	0	0.0	742065.0	223	0.01	0.03	29.84	221430.0	829.0	61097	0.17
5317STDY7723629	52.75	198928.0	1150.0	1.21	1.46	9.07	147.15	0.01	0.4	150.0	107.0	198392.0	196596.0	594968.0	2086.0	0	0.0	1127841.0	113	0.01	0.01	37.98	428337.0	1075.0	102337	0.18
5317STDY7723630	69.83	213741.0	1260.0	1.26	1.58	6.93	147.62	0.01	0.4	150.0	125.0	213149.0	211358.0	613984.0	1395.0	0	0.0	879232.0	440	0.01	0.05	23.03	202474.0	998.0	60939	0.16
5317STDY7723631	36.49	32945.0	399.0	1.25	1.37	22.86	145.72	0.02	0.46	150.0	20.0	32558.0	31661.0	433884.0	2620.0	0	0.0	1189013.0	595	0.02	0.05	40.38	480093.0	865.0	271821	0.22
5317STDY7723632	63.03	254620.0	1275.0	1.29	1.52	7.05	147.79	0.01	0.4	150.0	174.0	254122.0	252298.0	555369.0	1609.0	0	0.0	881125.0	88	0.01	0.01	29.73	261928.0	873.0	62131	0.18
5317STDY7723633	37.78	37698.0	141.0	1.36	1.65	18.72	147.02	0.01	0.41	150.0	37.0	37573.0	37311.0	87301.0	440.0	0	0.0	231087.0	69	0.01	0.03	43.29	100028.0	209.0	43249	0.19
5317STDY7723634	60.65	379480.0	2318.0	1.24	1.46	5.33	147.67	0.01	0.38	150.0	298.0	378648.0	374902.0	784176.0	2613.0	0	0.0	1292954.0	646	0.01	0.05	33.77	436666.0	1962.0	68853	0.2
5317STDY7723635	53.39	220760.0	1137.0	1.2	1.47	6.28	147.17	0.01	0.41	150.0	144.0	219941.0	217592.0	766593.0	4972.0	0	0.0	1435922.0	863	0.01	0.06	39.92	573219.0	1887.0	90275	0.35
5317STDY7723636	58.53	192901.0	1270.0	1.24	1.5	7.8	147.25	0.01	0.39	150.0	113.0	192300.0	190061.0	589690.0	1896.0	0	0.0	1007575.0	504	0.01	0.05	33.44	336884.0	1457.0	78601	0.19
5317STDY7723637	60.25	139056.0	834.0	1.26	1.45	6.17	146.95	0.01	0.4	150.0	97.0	138469.0	137210.0	395729.0	944.0	0	0.0	656831.0	263	0.01	0.04	33.4	219352.0	915.0	40543	0.14
5317STDY7723638	63.28	365605.0	2935.0	1.23	1.55	7.56	147.67	0.01	0.38	150.0	288.0	364808.0	360550.0	922206.0	2624.0	0	0.0	1457358.0	437	0.01	0.03	28.95	421863.0	1832.0	110228	0.18
5317STDY7723639	52.24	338460.0	1716.0	1.24	1.47	5.7	147.59	0.01	0.38	150.0	312.0	337652.0	334917.0	869505.0	4754.0	0	0.0	1664564.0	333	0.01	0.02	41.76	695079.0	1515.0	94893	0.29
5317STDY7723640	61.04	261547.0	1552.0	1.24	1.56	6.48	147.67	0.01	0.39	150.0	237.0	260804.0	258505.0	665064.0	2420.0	0	0.0	1089512.0	327	0.01	0.03	32.22	350995.0	1253.0	70706	0.22
5317STDY7723641	55.31	295942.0	1813.0	1.26	1.57	9.14	147.32	0.02	0.41	150.0	298.0	295122.0	291300.0	835987.0	2736.0	0	0.0	1511426.0	453	0.01	0.03	35.34	534115.0	2531.0	138135	0.18
5317STDY7723642	63.61	219610.0	1299.0	1.24	1.47	8.57	147.58	0.01	0.41	150.0	148.0	218974.0	217404.0	554687.0	1482.0	0	0.0	871958.0	174	0.01	0.02	27.63	240880.0	759.0	74735	0.17
5317STDY7723643	67.73	324308.0	2039.0	1.25	1.59	6.69	147.79	0.01	0.41	150.0	162.0	323568.0	320617.0	825523.0	1760.0	0	0.0	1218825.0	244	0.01	0.02	25.41	309737.0	1490.0	81561	0.14
5317STDY7723644	58.2	263756.0	1624.0	1.25	1.56	7.36	147.7	0.01	0.4	150.0	144.0	263044.0	259722.0	926701.0	3638.0	0	0.0	1592206.0	478	0.01	0.03	34.18	544186.0	2266.0	117203	0.23
5317STDY7723645	35.89	1457.0	5.0	1.16	1.35	24.46	146.63	0.01	0.57	150.0	2.0	1443.0	1441.0	4778.0	44.0	0	0.0	13314.0	3	0.01	0.02	39.31	5234.0	9.0	3255	0.33
5317STDY7723646	53.68	55252.0	247.0	1.38	1.66	10.6	147.58	0.01	0.37	150.0	34.0	55080.0	54769.0	101567.0	340.0	0	0.0	189222.0	38	0.0	0.02	35.52	67221.0	202.0	20056	0.18
5317STDY7723647	60.8	299144.0	1647.0	1.36	1.53	5.39	147.55	0.01	0.39	150.0	87.0	298491.0	296300.0	533937.0	2477.0	0	0.0	878225.0	88	0.01	0.01	33.51	294324.0	1110.0	47399	0.28
5317STDY7723648	37.96	312014.0	1664.0	1.29	1.5	12.16	146.97	0.01	0.38	150.0	266.0	311209.0	307925.0	726565.0	6623.0	0	0.0	1913814.0	574	0.01	0.03	49.49	947211.0	2159.0	232841	0.35
5317STDY7723649	61.0	337117.0	1940.0	1.27	1.46	5.65	147.67	0.01	0.4	150.0	257.0	336360.0	333499.0	708463.0	1962.0	0	0.0	1161335.0	232	0.01	0.02	33.16	385046.0	1421.0	65632	0.17
5317STDY7723650	58.4	150230.0	896.0	1.28	1.55	6.53	147.52	0.01	0.41	150.0	94.0	149664.0	148414.0	415433.0	1180.0	0	0.0	711408.0	355	0.01	0.05	34.87	248038.0	826.0	46402	0.17
5317STDY7723651	51.72	211692.0	1707.0	1.31	1.5	10.25	147.01	0.01	0.42	150.0	34.0	210949.0	206268.0	838271.0	3076.0	0	0.0	1620835.0	1459	0.01	0.09	37.75	611907.0	3683.0	166122	0.19
5317STDY7723652	51.97	118497.0	557.0	1.2	1.59	8.23	146.92	0.02	0.41	150.0	88.0	118112.0	117272.0	364689.0	1329.0	0	0.0	701770.0	281	0.01	0.04	39.57	277702.0	580.0	57769	0.19
5317STDY7723653	63.01	372886.0	2337.0	1.25	1.47	6.2	147.68	0.01	0.4	150.0	333.0	371916.0	367956.0	982423.0	2775.0	0	0.0	1559266.0	780	0.01	0.05	30.57	476600.0	2260.0	96688	0.18
5317STDY7723654	59.19	400474.0	3394.0	1.25	1.57	6.35	147.79	0.01	0.39	150.0	500.0	399568.0	394356.0	1185795.0	4801.0	0	0.0	2003452.0	2002	0.01	0.1	34.13	683701.0	2224.0	127153	0.24
5317STDY7723655	56.01	112464.0	730.0	1.21	1.55	9.8	147.35	0.01	0.43	150.0	63.0	111952.0	111031.0	340683.0	1315.0	0	0.0	608261.0	243	0.01	0.04	33.93	206374.0	640.0	59646	0.22
5317STDY7723656	57.44	82952.0	487.0	1.22	1.53	10.11	147.39	0.01	0.45	150.0	83.0	82656.0	81973.0	254186.0	730.0	0	0.0	442552.0	133	0.01	0.03	32.26	142766.0	409.0	44737	0.16
5317STDY7723657	34.77	59651.0	446.0	1.31	1.53	16.6	147.06	0.01	0.41	150.0	1.0	59267.0	58458.0	519102.0	7345.0	0	0.0	1492932.0	299	0.01	0.02	48.12	718340.0	746.0	247846	0.49
5317STDY7723658	31.54	355015.0	2284.0	1.22	1.77	17.12	147.23	0.01	0.36	150.0	343.0	354279.0	350842.0	636326.0	3883.0	0	0.0	2017582.0	0	0.01	0.0	51.15	1031976.0	1546.0	345397	0.19
5317STDY7723659	60.52	105512.0	714.0	1.25	1.58	7.73	147.36	0.01	0.44	150.0	38.0	104995.0	104101.0	372011.0	1057.0	0	0.0	614664.0	184	0.01	0.03	31.55	193929.0	659.0	47483	0.17
5317STDY7723660	65.49	273197.0	2139.0	1.27	1.61	7.46	147.76	0.01	0.42	150.0	144.0	272481.0	269472.0	810884.0	2043.0	0	0.0	1238131.0	618	0.01	0.05	26.84	332311.0	1442.0	92275	0.17
5317STDY7723661	65.56	344013.0	2848.0	1.27	1.55	6.45	147.96	0.01	0.4	150.0	314.0	343222.0	339368.0	877181.0	2050.0	0	0.0	1338011.0	402	0.01	0.03	27.8	371975.0	1483.0	86403	0.15
5317STDY7723662	67.06	166373.0	1162.0	1.33	1.56	6.78	147.68	0.01	0.43	150.0	171.0	165726.0	164016.0	536303.0	1385.0	0	0.0	799682.0	240	0.01	0.03	25.95	207528.0	1024.0	54226	0.17
5317STDY7723663	63.69	142031.0	1094.0	1.26	1.54	7.81	147.73	0.01	0.43	150.0	95.0	141581.0	139986.0	471762.0	1527.0	0	0.0	740706.0	74	0.01	0.01	28.28	209456.0	856.0	57887	0.21
5317STDY7723664	58.39	245980.0	1578.0	1.28	1.45	8.48	147.62	0.01	0.42	150.0	235.0	245370.0	242760.0	700391.0	3957.0	0	0.0	1199580.0	360	0.01	0.03	32.77	393150.0	1407.0	101722	0.33
5317STDY7723665	68.17	246462.0	1782.0	1.27	1.51	5.48	148.02	0.01	0.43	150.0	242.0	245876.0	243574.0	637235.0	1307.0	0	0.0	934821.0	187	0.01	0.02	26.19	244858.0	864.0	51234	0.14
5317STDY7723666	61.94	257435.0	1252.0	1.28	1.45	7.61	147.47	0.01	0.42	150.0	165.0	256814.0	254571.0	760023.0	1578.0	0	0.0	1227055.0	368	0.01	0.03	30.29	371672.0	1447.0	93414	0.13
5317STDY7723667	54.66	246313.0	1536.0	1.22	1.54	6.83	147.32	0.01	0.37	150.0	217.0	245573.0	243240.0	749041.0	4817.0	0	0.0	1370332.0	274	0.01	0.02	38.13	522513.0	1320.0	93687	0.35
5317STDY7723668	67.61	160930.0	1010.0	1.3	1.55	7.05	147.59	0.01	0.43	150.0	239.0	160322.0	158700.0	477022.0	1188.0	0	0.0	705551.0	141	0.01	0.02	25.15	177480.0	981.0	49720	0.17
5317STDY7723669	37.01	66100.0	606.0	1.21	1.63	11.22	146.28	0.01	0.41	150.0	94.0	65550.0	64143.0	609771.0	2631.0	0	0.0	1647699.0	824	0.01	0.05	51.56	849623.0	1257.0	184850	0.16
5317STDY7723670	59.67	243518.0	1611.0	1.28	1.56	6.9	147.39	0.01	0.41	150.0	213.0	242787.0	240386.0	680966.0	3851.0	0	0.0	1141132.0	114	0.01	0.01	33.08	377473.0	1308.0	78728	0.34
5317STDY7723671	62.99	189695.0	1286.0	1.27	1.55	6.88	147.63	0.01	0.43	150.0	151.0	189182.0	187497.0	466538.0	1237.0	0	0.0	740670.0	148	0.01	0.02	29.95	221805.0	761.0	50942	0.17
5317STDY7723672	65.93	257282.0	1733.0	1.22	1.5	6.32	147.77	0.01	0.41	150.0	161.0	256544.0	254140.0	708199.0	1371.0	0	0.0	1074101.0	107	0.01	0.01	27.61	296556.0	1248.0	67868	0.13
5317STDY7723673	67.03	230315.0	1893.0	1.28	1.62	5.63	147.89	0.01	0.41	150.0	162.0	229629.0	227010.0	688242.0	1523.0	0	0.0	1026713.0	411	0.01	0.04	27.15	278724.0	1250.0	57813	0.15
5317STDY7723674	62.09	207618.0	1352.0	1.21	1.55	6.69	147.53	0.01	0.42	150.0	180.0	206979.0	204930.0	577919.0	2836.0	0	0.0	930818.0	279	0.01	0.03	30.89	287487.0	1156.0	62297	0.3
5317STDY7723675	41.99	64241.0	770.0	1.24	1.38	7.54	147.46	0.01	0.44	150.0	56.0	63801.0	62058.0	740812.0	8098.0	0	0.0	1764408.0	705	0.01	0.04	49.98	881834.0	1357.0	132959	0.46
5317STDY7723676	68.6	335557.0	1810.0	1.32	1.42	7.12	147.85	0.01	0.42	150.0	193.0	334659.0	331629.0	1082179.0	2705.0	0	0.0	1577605.0	789	0.01	0.05	24.06	379580.0	1925.0	112352	0.17
5317STDY7723677	61.34	275283.0	1730.0	1.26	1.48	6.77	147.65	0.01	0.41	150.0	160.0	274508.0	271608.0	842687.0	4133.0	0	0.0	1373769.0	550	0.01	0.04	31.55	433368.0	1785.0	93031	0.3
5317STDY7723678	63.79	645796.0	4472.0	1.28	1.55	5.81	147.75	0.01	0.35	150.0	482.0	644349.0	637507.0	1517652.0	2395.0	0	0.0	2379032.0	953	0.01	0.04	30.25	719657.0	3335.0	138375	0.1
5317STDY7723679	35.85	17488.0	117.0	1.17	1.26	6.41	147.99	0.01	0.49	150.0	18.0	17317.0	16991.0	293085.0	2138.0	0	0.0	817578.0	245	0.01	0.03	57.45	469711.0	362.0	52399	0.26
5317STDY7723680	64.81	183528.0	1670.0	1.24	1.5	6.8	147.61	0.01	0.44	150.0	113.0	182993.0	181057.0	461352.0	1050.0	0	0.0	711903.0	71	0.01	0.01	28.24	201009.0	688.0	48421	0.15
5317STDY7723681	69.7	282208.0	1889.0	1.27	1.49	4.82	148.16	0.01	0.4	150.0	325.0	281449.0	278613.0	763173.0	1486.0	0	0.0	1095010.0	548	0.01	0.05	25.29	276951.0	1381.0	52852	0.14
5317STDY7723682	61.43	274451.0	1559.0	1.25	1.6	6.49	147.69	0.01	0.42	150.0	212.0	273834.0	271780.0	659032.0	2005.0	0	0.0	1072826.0	107	0.01	0.01	31.88	341982.0	900.0	69700	0.19
5317STDY7723683	62.69	188510.0	1205.0	1.28	1.56	6.42	147.75	0.01	0.43	150.0	153.0	188018.0	186253.0	511989.0	1403.0	0	0.0	816724.0	245	0.01	0.03	30.7	250694.0	899.0	52393	0.17
5317STDY7723684	64.83	292399.0	1711.0	1.26	1.55	6.47	147.72	0.01	0.42	150.0	206.0	291609.0	288923.0	801631.0	3176.0	0	0.0	1236580.0	494	0.01	0.04	28.41	351338.0	1559.0	79941	0.26
5317STDY7723685	64.39	162612.0	911.0	1.28	1.47	6.99	147.64	0.01	0.42	150.0	157.0	162157.0	160721.0	499182.0	1251.0	0	0.0	775229.0	465	0.01	0.06	28.4	220142.0	823.0	54189	0.16
5317STDY7723686	67.78	303760.0	2066.0	1.26	1.61	6.06	148.07	0.01	0.42	150.0	329.0	303002.0	300187.0	713051.0	1217.0	0	0.0	1052006.0	316	0.01	0.03	26.01	273647.0	1178.0	63775	0.12
5317STDY7723687	57.92	174265.0	1201.0	1.25	1.51	7.66	147.44	0.01	0.44	150.0	134.0	173721.0	172079.0	573414.0	1818.0	0	0.0	990052.0	99	0.01	0.01	34.22	338828.0	851.0	75893	0.18
5317STDY7723688	70.18	378212.0	3070.0	1.26	1.53	7.04	147.95	0.01	0.42	150.0	206.0	376984.0	370991.0	1199549.0	2767.0	0	0.0	1709224.0	1197	0.01	0.07	22.55	385345.0	3945.0	120366	0.16
5317STDY7723689	69.46	112162.0	648.0	1.3	1.54	8.18	147.8	0.01	0.46	150.0	121.0	111750.0	110964.0	254510.0	527.0	0	0.0	366427.0	73	0.01	0.02	22.2	81350.0	429.0	29967	0.14
5317STDY7723690	52.36	203127.0	1242.0	1.25	1.56	7.09	147.09	0.01	0.4	150.0	145.0	202567.0	200435.0	771072.0	3137.0	0	0.0	1472594.0	294	0.01	0.02	40.32	593707.0	1305.0	104384	0.21
5317STDY7723691	67.65	180063.0	1341.0	1.27	1.58	6.47	147.92	0.01	0.42	150.0	149.0	179417.0	177386.0	516780.0	1039.0	0	0.0	763853.0	76	0.01	0.01	25.72	196491.0	1187.0	49467	0.14
5317STDY7723692	66.67	169749.0	1217.0	1.25	1.57	7.73	147.84	0.01	0.44	150.0	122.0	169084.0	166783.0	746721.0	2208.0	0	0.0	1120097.0	448	0.01	0.04	25.36	284085.0	1627.0	86635	0.2
5317STDY7723693	70.46	316555.0	2001.0	1.24	1.74	6.95	148.0	0.01	0.42	150.0	364.0	315498.0	311941.0	798382.0	1539.0	0	0.0	1133081.0	113	0.01	0.01	22.44	254288.0	2249.0	78759	0.14
5317STDY7723694	65.38	441422.0	2732.0	1.22	1.51	5.77	148.0	0.01	0.4	150.0	204.0	440192.0	435911.0	1190356.0	3174.0	0	0.0	1820684.0	728	0.01	0.04	28.64	521401.0	2575.0	105025	0.17
5317STDY7723695	62.28	167010.0	970.0	1.26	1.46	5.86	147.72	0.01	0.48	150.0	138.0	166541.0	165144.0	501533.0	1252.0	0	0.0	805317.0	81	0.01	0.01	31.69	255240.0	758.0	47211	0.16
5317STDY7723696	69.17	399801.0	2908.0	1.24	1.57	5.58	148.06	0.01	0.41	150.0	428.0	398875.0	394761.0	880599.0	2004.0	0	0.0	1273085.0	127	0.01	0.01	25.09	319373.0	1704.0	70982	0.16
5317STDY7723697	63.84	288722.0	1949.0	1.28	1.46	6.7	147.65	0.01	0.41	150.0	208.0	287971.0	285269.0	699218.0	2131.0	0	0.0	1095238.0	438	0.01	0.04	29.22	320037.0	1296.0	73414	0.19
5317STDY7723698	59.77	219470.0	1230.0	1.21	1.44	7.11	147.45	0.01	0.43	150.0	158.0	218944.0	217139.0	626488.0	2225.0	0	0.0	1048125.0	105	0.01	0.01	32.89	344734.0	943.0	74573	0.21
5317STDY7723699	60.51	366551.0	2792.0	1.26	1.56	6.41	147.68	0.01	0.4	150.0	173.0	365406.0	361736.0	1376536.0	3646.0	0	0.0	2274722.0	455	0.01	0.02	32.9	748394.0	1850.0	145691	0.16
5317STDY7723700	66.27	379571.0	2745.0	1.28	1.5	5.66	147.87	0.01	0.41	150.0	247.0	378637.0	374725.0	972964.0	1801.0	0	0.0	1468236.0	294	0.01	0.02	27.93	410065.0	1854.0	83112	0.12
5317STDY7723701	63.89	285775.0	1821.0	1.28	1.57	6.0	147.73	0.01	0.4	150.0	246.0	284908.0	282186.0	805124.0	1661.0	0	0.0	1260210.0	126	0.01	0.01	29.98	377779.0	1522.0	75520	0.13
5317STDY7723702	65.22	245738.0	1795.0	1.28	1.57	6.63	147.58	0.01	0.42	150.0	169.0	244946.0	242659.0	659841.0	1969.0	0	0.0	1011698.0	202	0.01	0.02	27.93	282617.0	1115.0	67069	0.19
5317STDY7723703	66.95	142872.0	976.0	1.25	1.51	7.28	147.95	0.01	0.43	150.0	128.0	142418.0	141253.0	342114.0	937.0	0	0.0	510983.0	102	0.01	0.02	25.56	130607.0	515.0	37223	0.18
5317STDY7723704	58.94	190536.0	1198.0	1.26	1.51	8.48	147.32	0.01	0.43	150.0	150.0	190079.0	188294.0	587037.0	1987.0	0	0.0	995962.0	299	0.01	0.03	32.35	322182.0	894.0	84457	0.2
5317STDY7723705	65.97	128797.0	956.0	1.2	1.53	7.96	147.72	0.01	0.45	150.0	71.0	128335.0	127179.0	372709.0	1157.0	0	0.0	564925.0	113	0.01	0.02	25.85	146013.0	591.0	44933	0.2
5317STDY7723706	63.04	220729.0	1396.0	1.34	1.49	8.05	147.45	0.01	0.42	150.0	98.0	220177.0	217701.0	650613.0	1594.0	0	0.0	1032049.0	206	0.01	0.02	28.74	296592.0	1534.0	83044	0.15
5317STDY7723707	60.4	230788.0	1203.0	1.27	1.54	9.07	147.6	0.01	0.41	150.0	189.0	230159.0	228261.0	657293.0	1910.0	0	0.0	1088313.0	218	0.01	0.02	30.34	330213.0	1135.0	98679	0.18
5317STDY7723708	66.37	433426.0	3012.0	1.3	1.49	6.63	148.03	0.01	0.4	150.0	490.0	432550.0	427815.0	1131494.0	2230.0	0	0.0	1704839.0	1195	0.01	0.07	26.79	456758.0	2109.0	113162	0.13
5317STDY7723709	63.52	292296.0	1768.0	1.31	1.58	6.6	147.43	0.01	0.41	150.0	292.0	291428.0	288494.0	867001.0	3576.0	0	0.0	1365033.0	409	0.01	0.03	29.6	404018.0	1742.0	90029	0.26
5317STDY7723710	59.97	152772.0	968.0	1.24	1.52	7.95	147.19	0.01	0.44	150.0	98.0	152320.0	150852.0	556446.0	1630.0	0	0.0	927807.0	278	0.01	0.03	31.88	295760.0	854.0	73693	0.18
5317STDY7723711	71.92	528193.0	3774.0	1.27	1.58	6.76	148.04	0.01	0.41	150.0	568.0	527055.0	521122.0	1175240.0	2456.0	0	0.0	1634185.0	490	0.01	0.03	21.15	345562.0	2729.0	110437	0.15
5317STDY7723712	62.71	259725.0	1424.0	1.25	1.51	6.45	147.66	0.01	0.42	150.0	268.0	259056.0	256851.0	675801.0	2611.0	0	0.0	1077596.0	324	0.01	0.03	30.56	329301.0	1182.0	69559	0.24
5317STDY7723713	63.52	40039.0	278.0	1.23	1.51	6.11	147.58	0.01	0.35	150.0	24.0	39903.0	39543.0	117683.0	232.0	0	0.0	185283.0	37	0.01	0.02	30.23	56015.0	194.0	11316	0.13
5317STDY7723714	62.46	183481.0	1106.0	1.27	1.6	7.24	147.43	0.01	0.42	150.0	88.0	182890.0	181245.0	718368.0	2160.0	0	0.0	1150053.0	345	0.01	0.03	30.07	345864.0	1042.0	83316	0.19
5317STDY7723715	61.71	101360.0	843.0	1.35	1.55	7.49	147.13	0.01	0.41	150.0	83.0	100900.0	99699.0	376748.0	1061.0	0	0.0	610552.0	306	0.01	0.05	30.57	186673.0	735.0	45764	0.17
5317STDY7723716	74.05	179609.0	1133.0	1.31	1.54	6.74	147.98	0.01	0.44	150.0	198.0	178915.0	177409.0	460573.0	671.0	0	0.0	621949.0	124	0.01	0.02	19.09	118702.0	869.0	41879	0.11
5317STDY7723717	65.8	157217.0	849.0	1.22	1.43	6.64	147.71	0.01	0.43	150.0	166.0	156708.0	155414.0	444697.0	892.0	0	0.0	675851.0	135	0.01	0.02	27.41	185236.0	788.0	44891	0.13
5317STDY7723718	70.68	353788.0	2284.0	1.27	1.52	6.28	148.08	0.01	0.42	150.0	270.0	353016.0	349572.0	895828.0	2369.0	0	0.0	1267405.0	634	0.01	0.05	22.8	288909.0	1662.0	79665	0.19
5317STDY7723719	65.19	249999.0	1865.0	1.3	1.48	8.02	147.62	0.01	0.41	150.0	141.0	249136.0	246028.0	777468.0	1372.0	0	0.0	1192647.0	477	0.01	0.04	26.63	317615.0	1965.0	95715	0.12
5317STDY7723720	64.57	161000.0	805.0	1.29	1.52	6.91	147.41	0.01	0.42	150.0	185.0	160491.0	159220.0	473721.0	1210.0	0	0.0	733702.0	220	0.01	0.03	28.32	207800.0	790.0	50751	0.16
5317STDY7723721	63.78	356116.0	2139.0	1.26	1.53	5.92	147.57	0.01	0.38	150.0	288.0	355147.0	351302.0	975213.0	2003.0	0	0.0	1528956.0	764	0.01	0.05	30.12	460504.0	2387.0	90472	0.13
5317STDY7723722	69.02	172828.0	1318.0	1.26	1.44	6.92	147.75	0.01	0.43	150.0	132.0	172350.0	170508.0	482390.0	1192.0	0	0.0	698870.0	140	0.01	0.02	23.87	166831.0	870.0	48317	0.17
5317STDY7723723	63.57	280461.0	1843.0	1.29	1.5	7.28	147.56	0.01	0.42	150.0	132.0	279686.0	277035.0	746054.0	1879.0	0	0.0	1173631.0	117	0.01	0.01	28.98	340145.0	1451.0	85436	0.16
5317STDY7723724	68.23	366832.0	2419.0	1.24	1.53	6.33	147.82	0.01	0.42	150.0	224.0	365929.0	362738.0	878473.0	3015.0	0	0.0	1287547.0	386	0.01	0.03	25.18	324169.0	1451.0	81504	0.23
5317STDY7723725	68.74	189139.0	1416.0	1.23	1.51	6.97	147.77	0.01	0.43	150.0	119.0	188529.0	186706.0	494263.0	1321.0	0	0.0	719049.0	144	0.01	0.02	24.08	173181.0	898.0	50140	0.18
5317STDY7723726	64.49	277596.0	1820.0	1.24	1.49	5.81	147.75	0.01	0.4	150.0	254.0	276771.0	274110.0	683978.0	1681.0	0	0.0	1060540.0	212	0.01	0.02	29.51	313009.0	1412.0	61660	0.16
5317STDY7723727	67.47	96974.0	614.0	1.28	1.57	6.6	147.62	0.01	0.43	150.0	96.0	96586.0	95822.0	263945.0	803.0	0	0.0	391177.0	157	0.01	0.04	25.68	100441.0	442.0	25831	0.21
5317STDY7723728	75.36	25675.0	322.0	1.2	1.26	14.8	145.71	0.02	1.05	150.0	56.0	22509.0	14746.0	321713.0	1897.0	0	0.0	426924.0	1024	0.02	0.24	9.16	39120.0	10551.0	63170	0.44
5317STDY7723729	59.78	165590.0	911.0	1.26	1.46	7.2	147.51	0.01	0.4	150.0	86.0	165108.0	163372.0	560101.0	1667.0	0	0.0	936952.0	281	0.01	0.03	32.81	307444.0	1221.0	67459	0.18
5317STDY7723730	52.86	150046.0	1146.0	1.2	1.41	7.74	147.16	0.01	0.41	150.0	157.0	149603.0	147739.0	563356.0	3860.0	0	0.0	1065765.0	639	0.01	0.06	38.98	415477.0	1004.0	82433	0.36
5317STDY7723731	63.31	152141.0	1009.0	1.27	1.51	6.3	147.52	0.01	0.42	150.0	113.0	151599.0	149941.0	484179.0	1156.0	0	0.0	764766.0	306	0.01	0.04	30.2	230960.0	1078.0	48165	0.15
5317STDY7723732	68.05	391866.0	2369.0	1.27	1.45	8.24	147.8	0.01	0.39	150.0	385.0	390900.0	386226.0	1170004.0	1952.0	0	0.0	1719258.0	859	0.01	0.05	23.55	404853.0	2886.0	141590	0.11
5317STDY7723733	65.32	392094.0	2948.0	1.23	1.52	5.02	147.92	0.01	0.38	150.0	271.0	390969.0	386469.0	1099665.0	2581.0	0	0.0	1683503.0	841	0.01	0.05	29.46	495949.0	2406.0	84467	0.15
5317STDY7723734	62.23	225496.0	1284.0	1.25	1.49	6.01	147.83	0.01	0.42	150.0	219.0	224826.0	222635.0	642599.0	1763.0	0	0.0	1032658.0	310	0.01	0.03	31.56	325909.0	1358.0	62077	0.17
5317STDY7723735	65.29	351024.0	2336.0	1.24	1.58	6.03	147.77	0.01	0.41	150.0	295.0	350187.0	346554.0	902780.0	3698.0	0	0.0	1382757.0	415	0.01	0.03	28.38	392389.0	1839.0	83475	0.27
5317STDY7723736	55.58	140780.0	950.0	1.22	1.46	6.88	147.13	0.01	0.43	150.0	87.0	140227.0	138432.0	555671.0	1925.0	0	0.0	999773.0	200	0.01	0.02	37.33	373232.0	1311.0	68745	0.19
5317STDY7723737	59.53	148833.0	988.0	1.22	1.46	7.5	147.24	0.01	0.42	150.0	223.0	148297.0	146512.0	561124.0	1580.0	0	0.0	942604.0	189	0.01	0.02	32.78	308999.0	1110.0	70712	0.17
5317STDY7723738	66.07	244606.0	1910.0	1.22	1.48	6.58	147.61	0.01	0.4	150.0	380.0	243823.0	240251.0	910847.0	1433.0	0	0.0	1378531.0	1378	0.01	0.1	27.14	374201.0	2065.0	90672	0.1
5317STDY7723739	70.18	53282.0	317.0	1.26	1.56	7.28	147.61	0.01	0.45	150.0	56.0	53052.0	52676.0	148848.0	300.0	0	0.0	212090.0	127	0.01	0.06	22.33	47365.0	233.0	15450	0.14
5317STDY7723740	65.84	204965.0	1437.0	1.25	1.58	6.52	147.61	0.01	0.43	150.0	149.0	204308.0	202280.0	590857.0	1482.0	0	0.0	897419.0	269	0.01	0.03	27.44	246281.0	1099.0	58530	0.17
5317STDY7723741	64.92	204373.0	1297.0	1.27	1.5	7.59	147.59	0.01	0.42	150.0	82.0	203649.0	201361.0	742632.0	1891.0	0	0.0	1143855.0	572	0.01	0.05	27.27	311972.0	1633.0	86788	0.17
5317STDY7723742	61.33	207381.0	1500.0	1.27	1.5	6.64	147.56	0.01	0.41	150.0	144.0	206810.0	204818.0	647441.0	1886.0	0	0.0	1055685.0	633	0.01	0.06	31.8	335692.0	919.0	70033	0.18
5317STDY7723743	63.62	123259.0	964.0	1.21	1.44	7.38	147.54	0.01	0.43	150.0	161.0	122656.0	120665.0	617005.0	1677.0	0	0.0	969761.0	291	0.01	0.03	28.8	279263.0	1469.0	71525	0.17
5317STDY7723744	58.26	221564.0	1290.0	1.28	1.54	6.82	147.4	0.01	0.42	150.0	170.0	220918.0	219028.0	666260.0	3808.0	0	0.0	1143548.0	114	0.01	0.01	34.57	395300.0	1076.0	78066	0.33
5317STDY7723745	54.66	203991.0	1261.0	1.22	1.46	8.74	147.27	0.01	0.42	150.0	189.0	203456.0	201382.0	680003.0	2448.0	0	0.0	1244087.0	249	0.01	0.02	36.39	452698.0	1159.0	108689	0.2
5317STDY7723746	59.04	199171.0	1457.0	1.24	1.54	9.37	147.37	0.01	0.44	150.0	228.0	198338.0	195099.0	832203.0	2435.0	0	0.0	1409581.0	564	0.01	0.04	31.38	442326.0	2387.0	132053	0.17
5317STDY7723747	64.07	113763.0	802.0	1.2	1.58	8.85	147.56	0.01	0.44	150.0	86.0	113272.0	112185.0	351809.0	1657.0	0	0.0	549137.0	220	0.01	0.04	26.75	146872.0	690.0	48579	0.3
5317STDY7723748	58.52	100497.0	703.0	1.27	1.54	9.4	147.45	0.01	0.45	150.0	72.0	100036.0	99046.0	362553.0	2191.0	0	0.0	619575.0	434	0.01	0.07	31.66	196169.0	676.0	58228	0.35
5317STDY7723749	72.97	146286.0	985.0	1.26	1.64	7.75	148.09	0.01	0.39	150.0	193.0	145850.0	144581.0	346839.0	641.0	0	0.0	475327.0	143	0.01	0.03	19.12	90875.0	527.0	36829	0.13
5317STDY7723750	67.3	266678.0	1637.0	1.35	1.58	8.63	147.16	0.01	0.37	150.0	173.0	266003.0	263560.0	775050.0	1454.0	0	0.0	1151567.0	345	0.01	0.03	23.91	275339.0	1308.0	99379	0.13
5317STDY7723751	78.23	273822.0	1889.0	1.26	1.63	5.81	148.08	0.01	0.38	150.0	263.0	273205.0	270776.0	594920.0	705.0	0	0.0	760479.0	228	0.01	0.03	15.84	120424.0	894.0	44202	0.09
5317STDY7723752	50.97	314.0	2.0	1.0	1.25	21.19	147.92	0.0	0.5	150.0	0.0	314.0	312.0	837.0	3.0	0	0.0	1642.0	0	0.0	0.0	27.65	454.0	0.0	348	0.18
5317STDY7723753	80.2	445017.0	2755.0	1.3	1.55	4.5	148.14	0.01	0.36	150.0	377.0	444143.0	439835.0	1097189.0	1569.0	0	0.0	1368089.0	547	0.01	0.04	15.14	207194.0	2050.0	61590	0.11
5317STDY7723754	72.88	371438.0	2403.0	1.35	1.58	4.66	148.01	0.01	0.37	150.0	91.0	370571.0	367069.0	992741.0	1562.0	0	0.0	1362193.0	545	0.01	0.04	22.31	303851.0	1875.0	63494	0.11
5317STDY7723755	73.95	377223.0	2553.0	1.29	1.65	4.45	148.03	0.01	0.36	150.0	320.0	376350.0	372399.0	1071194.0	2003.0	0	0.0	1448566.0	868	0.01	0.06	21.41	310106.0	1951.0	64395	0.14
5317STDY7723756	76.98	687626.0	4843.0	1.3	1.54	3.99	148.14	0.01	0.33	150.0	743.0	686357.0	679307.0	1571966.0	1659.0	0	0.0	2041992.0	817	0.01	0.04	18.91	386044.0	2733.0	81506	0.08
5317STDY7723757	79.99	150627.0	1030.0	1.29	1.52	3.82	148.27	0.01	0.37	150.0	139.0	150321.0	149022.0	336226.0	374.0	0	0.0	420313.0	253	0.01	0.06	16.03	67378.0	436.0	16082	0.09
5317STDY7723758	80.7	288358.0	1649.0	1.29	1.72	4.43	147.91	0.01	0.25	150.0	271.0	287979.0	285789.0	506511.0	610.0	0	0.0	627666.0	251	0.0	0.04	14.74	92493.0	649.0	27801	0.1
5317STDY7723759	69.11	4208.0	23.0	1.25	1.42	12.96	147.37	0.01	0.35	150.0	3.0	4189.0	4170.0	8094.0	14.0	0	0.0	11712.0	5	0.01	0.04	17.77	2081.0	12.0	1518	0.12
5317STDY7723760	54.53	618.0	4.0	1.67	1.15	27.61	147.01	0.01	0.48	150.0	0.0	615.0	612.0	1829.0	8.0	0	0.0	3354.0	4	0.01	0.12	17.5	587.0	2.0	926	0.24
5317STDY7723761	78.92	314146.0	1856.0	1.31	1.59	5.17	148.03	0.01	0.37	150.0	283.0	313511.0	310865.0	735287.0	921.0	0	0.0	931680.0	279	0.01	0.03	15.79	147075.0	1142.0	48118	0.1
5317STDY7723762	77.4	268064.0	1436.0	1.32	1.61	6.97	147.28	0.01	0.36	150.0	145.0	267502.0	265095.0	816280.0	1138.0	0	0.0	1054600.0	422	0.01	0.04	15.47	163190.0	1388.0	73570	0.11
5317STDY7723763	82.38	434482.0	2888.0	1.31	1.65	5.87	148.16	0.01	0.39	150.0	305.0	433862.0	429951.0	1092988.0	1462.0	0	0.0	1326689.0	398	0.01	0.03	11.61	153972.0	1338.0	77869	0.11
5317STDY7723764	38.04	283.0	1.0	1.4	2.5	43.21	147.38	0.0	0.54	150.0	0.0	282.0	281.0	706.0	1.0	0	0.0	1856.0	1	0.01	0.05	18.64	346.0	1.0	802	0.05
5317STDY7723765	83.41	509676.0	3713.0	1.28	1.51	5.31	148.29	0.01	0.37	150.0	705.0	508991.0	503897.0	1157459.0	1092.0	0	0.0	1387656.0	278	0.01	0.02	11.18	155086.0	1361.0	73741	0.08
5317STDY7723766	80.45	233733.0	1078.0	1.27	1.66	5.81	147.68	0.01	0.37	150.0	163.0	233217.0	231489.0	640407.0	870.0	0	0.0	796055.0	398	0.01	0.05	13.58	108114.0	1003.0	46266	0.11
5317STDY7723767	78.18	439796.0	3009.0	1.26	1.56	5.84	148.19	0.01	0.38	150.0	448.0	438978.0	434863.0	1041753.0	1302.0	0	0.0	1332471.0	400	0.01	0.03	15.85	211226.0	1476.0	77790	0.1
5317STDY7723768	77.33	684660.0	4427.0	1.31	1.62	5.23	148.29	0.01	0.36	150.0	549.0	683637.0	677152.0	1456968.0	1834.0	0	0.0	1884154.0	565	0.01	0.03	17.32	326355.0	2532.0	98432	0.1
5317STDY7723769	75.23	157564.0	971.0	1.27	1.63	6.02	147.88	0.01	0.38	150.0	191.0	157233.0	155819.0	378606.0	694.0	0	0.0	503239.0	201	0.01	0.04	18.57	93441.0	583.0	30297	0.14
5317STDY7723770	78.43	221014.0	1503.0	1.29	1.66	5.88	148.1	0.01	0.4	150.0	187.0	220471.0	218698.0	502120.0	665.0	0	0.0	640183.0	128	0.01	0.02	15.56	99621.0	626.0	37649	0.1
5317STDY7723771	78.75	119614.0	785.0	1.33	1.64	6.55	147.78	0.01	0.38	150.0	87.0	119255.0	118276.0	302310.0	315.0	0	0.0	383890.0	38	0.01	0.01	14.6	56063.0	466.0	25164	0.08
5317STDY7723772	70.36	173928.0	1130.0	1.29	1.56	7.08	147.56	0.01	0.33	150.0	131.0	173490.0	171514.0	674625.0	1120.0	0	0.0	958822.0	575	0.01	0.06	22.39	214666.0	1153.0	67836	0.12
5317STDY7723773	78.14	265135.0	1927.0	1.31	1.66	5.77	148.21	0.01	0.39	150.0	279.0	264496.0	261949.0	626363.0	1140.0	0	0.0	801585.0	400	0.01	0.05	15.9	127474.0	980.0	46208	0.14
5317STDY7723774	77.92	314028.0	1849.0	1.31	1.63	5.84	148.23	0.01	0.34	150.0	294.0	313418.0	310365.0	833095.0	1178.0	0	0.0	1069202.0	642	0.01	0.06	16.07	171825.0	1520.0	62462	0.11
5317STDY7723775	66.17	349436.0	2140.0	1.27	1.56	5.91	147.26	0.01	0.35	150.0	355.0	348615.0	345025.0	1345980.0	3836.0	0	0.0	2034223.0	1424	0.01	0.07	27.66	562754.0	1916.0	120229	0.19
5317STDY7723776	37.74	388.0	0.0	1.0	1.3	39.46	147.23	0.01	0.55	150.0	0.0	385.0	386.0	1074.0	7.0	0	0.0	2846.0	0	0.01	0.0	22.56	642.0	2.0	1123	0.25
5317STDY7723777	79.89	718975.0	4670.0	1.33	1.58	3.92	148.36	0.01	0.34	150.0	705.0	717825.0	711487.0	1573116.0	1978.0	0	0.0	1969128.0	786	0.01	0.04	16.06	316187.0	2113.0	77061	0.1
5317STDY7723778	40.41	657.0	0.0	1.52	2.06	43.83	146.89	0.01	0.47	150.0	2.0	653.0	651.0	2069.0	15.0	0	0.0	5120.0	2	0.01	0.04	15.43	790.0	4.0	2244	0.29
5317STDY7723779	75.85	758933.0	5113.0	1.3	1.53	4.85	148.13	0.01	0.34	150.0	562.0	757724.0	750022.0	1954577.0	3299.0	0	0.0	2576871.0	772	0.01	0.03	19.15	493361.0	3236.0	124862	0.13
5317STDY7723780	77.58	799484.0	5112.0	1.26	1.59	4.54	148.12	0.01	0.33	150.0	631.0	798069.0	790543.0	1862090.0	2747.0	0	0.0	2400365.0	1200	0.01	0.05	17.72	425326.0	3198.0	109002	0.11
5317STDY7723781	57.41	349392.0	1862.0	1.26	1.55	7.41	146.96	0.01	0.33	150.0	230.0	348268.0	345450.0	1443281.0	3499.0	0	0.0	2514092.0	1005	0.01	0.04	35.01	880114.0	1850.0	186193	0.14
5317STDY7723782	77.58	537974.0	3399.0	1.33	1.62	5.07	148.13	0.01	0.37	150.0	481.0	536934.0	532063.0	1299967.0	2709.0	0	0.0	1675750.0	838	0.01	0.05	17.14	287305.0	2031.0	84931	0.16
5317STDY7723783	79.65	479240.0	3268.0	1.34	1.61	5.57	148.23	0.01	0.37	150.0	423.0	478489.0	473712.0	1082555.0	1069.0	0	0.0	1359158.0	408	0.01	0.03	14.67	199347.0	1837.0	75779	0.08
5317STDY7723784	80.85	235679.0	1709.0	1.26	1.65	6.14	148.18	0.01	0.4	150.0	261.0	235195.0	232993.0	523150.0	571.0	0	0.0	647086.0	194	0.01	0.03	12.89	83425.0	716.0	39746	0.09
5317STDY7723785	59.65	181879.0	1246.0	1.24	1.53	8.0	147.88	0.01	0.4	150.0	158.0	181291.0	179533.0	526356.0	1748.0	0	0.0	882460.0	177	0.01	0.02	32.13	283575.0	942.0	70604	0.2
5317STDY7723786	71.75	185017.0	1151.0	1.25	1.64	6.42	148.04	0.01	0.4	150.0	154.0	184442.0	183038.0	449517.0	1577.0	0	0.0	626471.0	188	0.01	0.03	21.55	134997.0	674.0	40192	0.25
5317STDY7723787	60.39	299565.0	1365.0	1.33	1.55	8.28	147.41	0.01	0.37	150.0	248.0	298845.0	296414.0	1160174.0	3969.0	0	0.0	1921193.0	576	0.01	0.03	31.1	597396.0	1538.0	159078	0.21
5317STDY7723788	36.34	337.0	0.0	1.11	1.83	40.47	147.18	0.01	0.52	150.0	0.0	336.0	337.0	976.0	8.0	0	0.0	2686.0	1	0.01	0.04	22.86	614.0	0.0	1087	0.3
5317STDY7723789	65.13	594172.0	3650.0	1.27	1.53	7.06	147.75	0.01	0.34	150.0	253.0	593121.0	587192.0	1566326.0	4288.0	0	0.0	2405063.0	721	0.01	0.03	27.61	664045.0	3077.0	169683	0.18
5317STDY7723790	75.92	374339.0	2350.0	1.32	1.58	5.09	148.35	0.01	0.35	150.0	373.0	373704.0	370276.0	873488.0	2237.0	0	0.0	1150604.0	345	0.01	0.03	18.77	215969.0	1340.0	58565	0.19
5317STDY7723791	72.95	379485.0	2588.0	1.25	1.57	5.65	148.1	0.01	0.36	150.0	403.0	378551.0	374478.0	1103930.0	1589.0	0	0.0	1513256.0	605	0.01	0.04	21.26	321669.0	2016.0	85463	0.11
5317STDY7723792	70.06	6450.0	54.0	1.24	1.67	11.15	147.71	0.01	0.38	150.0	0.0	6411.0	6358.0	21132.0	50.0	0	0.0	30164.0	21	0.01	0.07	18.56	5597.0	38.0	3364	0.17
5317STDY7723793	73.68	475693.0	2830.0	1.33	1.56	4.92	148.2	0.01	0.37	150.0	327.0	474826.0	471008.0	1166411.0	2147.0	0	0.0	1583091.0	317	0.01	0.02	21.24	336267.0	1528.0	77949	0.14
5317STDY7723794	72.33	315323.0	1955.0	1.33	1.61	5.88	147.82	0.01	0.36	150.0	236.0	314683.0	311648.0	901258.0	1648.0	0	0.0	1246105.0	374	0.01	0.03	21.63	269584.0	1484.0	73241	0.13
5317STDY7723795	73.27	495179.0	3105.0	1.31	1.58	5.98	148.09	0.01	0.35	150.0	284.0	494445.0	489273.0	1407149.0	2919.0	0	0.0	1920505.0	1344	0.01	0.07	20.53	394295.0	2517.0	114798	0.15
5317STDY7723796	73.88	271965.0	2153.0	1.26	1.7	6.3	148.17	0.01	0.39	150.0	194.0	271384.0	268403.0	703416.0	932.0	0	0.0	952121.0	191	0.01	0.02	19.7	187571.0	1215.0	60011	0.1
5317STDY7723797	75.82	252043.0	1519.0	1.41	1.62	6.7	148.27	0.01	0.37	150.0	266.0	251511.0	249269.0	596254.0	714.0	0	0.0	786448.0	315	0.01	0.04	17.35	136443.0	989.0	52722	0.09
5317STDY7723798	77.66	416365.0	2556.0	1.26	1.55	6.29	148.24	0.01	0.39	150.0	423.0	415491.0	411885.0	993145.0	1739.0	0	0.0	1278900.0	512	0.01	0.04	15.87	202977.0	1501.0	80527	0.14
5317STDY7723799	79.02	959437.0	5970.0	1.24	1.51	3.83	148.34	0.01	0.33	150.0	906.0	958007.0	949302.0	1871177.0	2689.0	0	0.0	2367922.0	710	0.01	0.03	17.01	402676.0	3259.0	90670	0.11
5317STDY7723800	44.56	417.0	7.0	1.0	1.86	32.33	147.32	0.02	0.61	150.0	0.0	416.0	408.0	1111.0	2.0	0	0.0	2493.0	0	0.0	0.0	23.02	574.0	2.0	806	0.08
5317STDY7723801	77.6	553892.0	3656.0	1.27	1.59	4.6	148.35	0.01	0.36	150.0	551.0	552969.0	547582.0	1399380.0	1988.0	0	0.0	1803294.0	902	0.01	0.05	17.64	318060.0	2103.0	82964	0.11
5317STDY7723802	77.65	537537.0	4134.0	1.28	1.48	5.55	148.19	0.01	0.35	150.0	819.0	536439.0	529048.0	1585609.0	3569.0	0	0.0	2042020.0	1020	0.01	0.05	16.58	338553.0	3536.0	113269	0.17
5317STDY7723803	76.67	653734.0	4871.0	1.29	1.55	5.4	148.19	0.01	0.35	150.0	506.0	652305.0	645258.0	1695442.0	2945.0	0	0.0	2211488.0	1106	0.01	0.05	17.75	392535.0	3099.0	119460	0.13
5317STDY7723804	66.61	746478.0	5050.0	1.25	1.51	9.25	147.65	0.01	0.32	150.0	431.0	744955.0	737183.0	1590274.0	2040.0	0	0.0	2387320.0	2386	0.01	0.1	23.96	571947.0	3814.0	220673	0.09
5317STDY7723805	75.5	495291.0	3482.0	1.27	1.66	4.7	148.08	0.01	0.35	150.0	397.0	494335.0	489509.0	1194835.0	1612.0	0	0.0	1582510.0	317	0.01	0.02	19.67	311212.0	1903.0	74534	0.1
5317STDY7723806	77.29	286769.0	1780.0	1.25	1.66	5.36	148.09	0.01	0.38	150.0	276.0	286114.0	283671.0	613536.0	651.0	0	0.0	793814.0	238	0.01	0.03	17.24	136886.0	1042.0	42503	0.08
5317STDY7723807	75.42	334204.0	2391.0	1.29	1.7	5.98	147.95	0.01	0.38	150.0	321.0	333482.0	330025.0	809370.0	883.0	0	0.0	1073123.0	429	0.01	0.04	18.48	198264.0	1467.0	64177	0.08
5317STDY7723808	79.5	385805.0	2262.0	1.34	1.67	6.06	148.08	0.01	0.38	150.0	579.0	384910.0	380751.0	1005805.0	1335.0	0	0.0	1265210.0	506	0.01	0.04	14.3	180884.0	2213.0	76680	0.11
5317STDY7723809	69.94	164810.0	916.0	1.23	1.68	7.82	147.64	0.01	0.39	150.0	162.0	164353.0	163139.0	421977.0	871.0	0	0.0	603354.0	181	0.01	0.03	22.07	133181.0	593.0	47144	0.14
5317STDY7723810	75.37	298904.0	2266.0	1.28	1.49	6.14	148.09	0.01	0.39	150.0	183.0	298322.0	295221.0	683727.0	944.0	0	0.0	907215.0	272	0.01	0.03	18.36	166586.0	1234.0	55686	0.1
5317STDY7723811	73.71	414675.0	2922.0	1.27	1.63	5.48	148.25	0.01	0.39	150.0	299.0	413779.0	409776.0	1029336.0	1984.0	0	0.0	1396500.0	280	0.01	0.02	20.64	288296.0	1678.0	76604	0.14
5317STDY7723812	35.51	281.0	2.0	1.14	1.0	36.08	147.37	0.0	0.52	150.0	0.0	281.0	279.0	751.0	8.0	0	0.0	2115.0	2	0.01	0.09	27.94	591.0	0.0	763	0.38
5317STDY7723813	74.54	325092.0	2466.0	1.29	1.56	5.89	147.85	0.01	0.37	150.0	370.0	324263.0	320799.0	951324.0	1495.0	0	0.0	1276333.0	511	0.01	0.04	19.41	247779.0	1457.0	75224	0.12
5317STDY7723814	75.69	535593.0	2914.0	1.35	1.61	4.45	148.29	0.01	0.37	150.0	474.0	534653.0	530540.0	1279755.0	2473.0	0	0.0	1690872.0	507	0.01	0.03	19.69	332933.0	1665.0	75204	0.15
5317STDY7723815	72.35	489193.0	2969.0	1.29	1.65	5.34	147.98	0.01	0.37	150.0	300.0	488154.0	484074.0	1149555.0	2670.0	0	0.0	1588804.0	477	0.01	0.03	22.1	351200.0	1850.0	84902	0.17
5317STDY7723816	69.36	715562.0	4138.0	1.25	1.67	5.11	147.61	0.01	0.34	150.0	507.0	714151.0	708079.0	1681856.0	5138.0	0	0.0	2424939.0	728	0.01	0.03	25.29	613250.0	2838.0	123967	0.21
5317STDY7723817	55.57	203334.0	1249.0	1.26	1.58	7.57	146.64	0.01	0.37	150.0	183.0	202414.0	199279.0	874102.0	2973.0	0	0.0	1572894.0	786	0.01	0.05	36.62	575996.0	2623.0	119037	0.19
5317STDY7723818	73.77	271384.0	1719.0	1.25	1.65	5.55	147.97	0.01	0.39	150.0	246.0	270783.0	268230.0	630015.0	943.0	0	0.0	854078.0	342	0.01	0.04	20.53	175367.0	1189.0	47411	0.11
5317STDY7723819	75.09	579702.0	4116.0	1.24	1.63	5.36	148.16	0.01	0.37	150.0	480.0	578597.0	572666.0	1251009.0	2129.0	0	0.0	1666122.0	666	0.01	0.04	19.39	323050.0	2440.0	89268	0.13
5317STDY7723820	71.44	285985.0	1724.0	1.3	1.67	6.5	147.97	0.01	0.39	150.0	332.0	285213.0	282644.0	661747.0	1494.0	0	0.0	926304.0	185	0.01	0.02	21.88	202667.0	1285.0	60211	0.16
5317STDY7723821	68.13	201765.0	1306.0	1.3	1.63	6.23	147.81	0.01	0.41	150.0	146.0	201254.0	199607.0	552083.0	1353.0	0	0.0	810300.0	243	0.01	0.03	25.44	206125.0	706.0	50496	0.17
5317STDY7723822	49.82	102298.0	620.0	1.34	1.65	6.62	147.2	0.01	0.39	150.0	38.0	102026.0	101017.0	278815.0	919.0	0	0.0	559631.0	392	0.01	0.07	43.32	242428.0	623.0	37077	0.16
5317STDY7723823	69.89	143179.0	820.0	1.3	1.61	6.99	147.53	0.01	0.43	150.0	162.0	142764.0	141280.0	492197.0	1196.0	0	0.0	704206.0	352	0.01	0.05	22.89	161226.0	917.0	49235	0.17
5317STDY7723824	66.69	256265.0	1495.0	1.25	1.67	6.26	147.59	0.01	0.38	150.0	225.0	255608.0	253307.0	737112.0	1756.0	0	0.0	1105318.0	553	0.01	0.05	26.84	296648.0	1238.0	69249	0.16
5317STDY7723825	38.92	444.0	4.0	1.23	1.36	37.41	147.13	0.01	0.58	150.0	0.0	443.0	439.0	1243.0	2.0	0	0.0	3194.0	1	0.01	0.03	23.58	753.0	1.0	1195	0.06
5317STDY7723826	58.18	591791.0	3060.0	1.2	1.47	4.64	147.24	0.01	0.33	150.0	523.0	590684.0	585635.0	1390889.0	5603.0	0	0.0	2390526.0	478	0.01	0.02	36.92	882655.0	2573.0	110901	0.23
5317STDY7723827	67.34	190504.0	1235.0	1.28	1.65	6.75	147.16	0.01	0.39	150.0	213.0	190018.0	187835.0	675140.0	1614.0	0	0.0	1002528.0	401	0.01	0.04	25.71	257753.0	1221.0	67620	0.16
5317STDY7723828	4.73	579.0	4.0	1.11	1.19	94.37	144.64	0.01	0.64	150.0	0.0	553.0	469.0	9960.0	513.0	0	0.0	210392.0	42	0.0	0.02	0.64	1337.0	106.0	198540	0.24
5317STDY7723829	62.45	335266.0	2339.0	1.26	1.47	6.27	147.12	0.01	0.36	150.0	103.0	334244.0	330231.0	1298271.0	2908.0	0	0.0	2078838.0	1247	0.01	0.06	31.08	646127.0	2593.0	130285	0.14
5317STDY7723830	68.61	180320.0	959.0	1.32	1.62	6.01	147.34	0.01	0.38	150.0	121.0	179785.0	178138.0	682428.0	1612.0	0	0.0	994584.0	398	0.01	0.04	25.17	250343.0	1102.0	59803	0.16
5317STDY7723831	70.38	225571.0	1540.0	1.33	1.56	6.5	147.43	0.01	0.38	150.0	126.0	224886.0	222330.0	756087.0	1472.0	0	0.0	1074243.0	645	0.01	0.06	22.92	246184.0	1575.0	69855	0.14
5317STDY7723832	72.77	233267.0	1368.0	1.31	1.63	5.45	148.16	0.01	0.38	150.0	227.0	232727.0	231013.0	533594.0	917.0	0	0.0	733251.0	293	0.01	0.04	21.61	158463.0	659.0	39984	0.13
5317STDY7723833	60.31	46321.0	319.0	1.21	1.68	9.22	147.06	0.01	0.41	150.0	39.0	46160.0	45567.0	152176.0	496.0	0	0.0	252321.0	151	0.01	0.06	30.21	76229.0	396.0	23269	0.2
5317STDY7723834	67.33	411255.0	2486.0	1.31	1.66	7.13	147.75	0.01	0.39	150.0	278.0	410334.0	406376.0	961998.0	2440.0	0	0.0	1428766.0	856	0.01	0.06	25.32	361700.0	2115.0	101772	0.17
5317STDY7723835	62.58	497245.0	3309.0	1.31	1.66	6.89	147.45	0.01	0.37	150.0	428.0	495904.0	490487.0	1554338.0	6870.0	0	0.0	2483904.0	1243	0.01	0.05	30.2	750170.0	3021.0	171283	0.28
5317STDY7723836	36.74	301.0	3.0	1.0	1.0	35.46	146.98	0.0	0.57	150.0	0.0	299.0	298.0	834.0	2.0	0	0.0	2270.0	0	0.01	0.0	27.71	629.0	0.0	805	0.09
5317STDY7723837	72.52	240029.0	1643.0	1.27	1.68	6.49	147.86	0.01	0.4	150.0	188.0	239221.0	237077.0	528595.0	1416.0	0	0.0	728918.0	292	0.01	0.04	20.76	151287.0	1121.0	47328	0.19
5317STDY7723838	64.06	422371.0	3000.0	1.25	1.57	5.75	147.22	0.01	0.35	150.0	230.0	421125.0	416440.0	1425281.0	3078.0	0	0.0	2224798.0	1334	0.01	0.06	29.99	667292.0	2701.0	127813	0.14
5317STDY7723839	64.81	426446.0	2530.0	1.32	1.78	8.56	147.02	0.01	0.34	150.0	323.0	425074.0	420724.0	1570825.0	3497.0	0	0.0	2423911.0	1455	0.01	0.06	26.43	640599.0	2869.0	207535	0.14
5317STDY7723840	71.68	655389.0	4363.0	1.26	1.62	5.34	147.81	0.01	0.35	150.0	473.0	653973.0	647806.0	1387622.0	2343.0	0	0.0	1935870.0	387	0.01	0.02	22.84	442112.0	2747.0	103406	0.12
5317STDY7723841	73.35	479304.0	4055.0	1.28	1.63	5.42	148.01	0.01	0.36	150.0	201.0	478381.0	472527.0	1489245.0	1544.0	0	0.0	2030281.0	610	0.01	0.03	21.12	428759.0	2521.0	110123	0.08
5317STDY7723842	72.12	314647.0	2083.0	1.24	1.68	5.85	147.84	0.01	0.4	150.0	198.0	313875.0	311094.0	720445.0	1923.0	0	0.0	999002.0	400	0.01	0.04	21.8	217789.0	1272.0	58445	0.19
